test/CPU_testbench.vcd
$date
	Sat Dec 11 15:39:55 2021
$end
$version
	Icarus Verilog
$end
$timescale
	1s
$end
$scope module CPU_testbench $end
$var wire 32 ! writedata [31:0] $end
$var wire 1 " write $end
$var wire 1 # waitrequest $end
$var wire 32 $ register_v0 [31:0] $end
$var wire 32 % readdata_to_CPU [31:0] $end
$var wire 32 & readdata [31:0] $end
$var wire 1 ' read $end
$var wire 4 ( byteenable [3:0] $end
$var wire 32 ) address [31:0] $end
$var wire 1 * active $end
$var reg 1 + clk $end
$var reg 1 , reset $end
$var integer 32 - counter [31:0] $end
$scope module datapath $end
$var wire 1 + clk $end
$var wire 1 , reset $end
$var wire 1 . zero $end
$var wire 32 / writedata [31:0] $end
$var wire 1 " write $end
$var wire 1 # waitrequest $end
$var wire 1 0 unsign $end
$var wire 3 1 state [2:0] $end
$var wire 1 2 stall $end
$var wire 32 3 register_v0 [31:0] $end
$var wire 32 4 readdata_to_CPU [31:0] $end
$var wire 32 5 readdata2 [31:0] $end
$var wire 32 6 readdata1 [31:0] $end
$var wire 32 7 readdata [31:0] $end
$var wire 5 8 readR2 [4:0] $end
$var wire 5 9 readR1 [4:0] $end
$var wire 1 ' read $end
$var wire 32 : pc_in [31:0] $end
$var wire 6 ; instr31_26 [5:0] $end
$var wire 5 < instr25_21 [4:0] $end
$var wire 5 = instr20_16 [4:0] $end
$var wire 5 > instr15_11 [4:0] $end
$var wire 16 ? instr15_0 [15:0] $end
$var wire 5 @ instr10_6 [4:0] $end
$var wire 32 A full_instr [31:0] $end
$var wire 1 B fixed_shift $end
$var wire 4 C byteenable [3:0] $end
$var wire 1 D branch_equal $end
$var wire 32 E address [31:0] $end
$var wire 1 * active $end
$var wire 1 F ReturnToReg $end
$var wire 5 G Regmux2to1 [4:0] $end
$var wire 32 H RegWritemux2to1 [31:0] $end
$var wire 1 I RegWrite $end
$var wire 1 J RegDst $end
$var wire 32 K PC_RETURN_ADDR_ALOUT_MUX [31:0] $end
$var wire 1 L PCWriteCond $end
$var wire 1 M PCWrite $end
$var wire 2 N PCSource [1:0] $end
$var wire 32 O PC [31:0] $end
$var wire 1 P MemtoReg $end
$var wire 32 Q LO [31:0] $end
$var wire 1 R JUMP $end
$var wire 1 S IorD $end
$var wire 1 T IRWrite $end
$var wire 32 U HI_LO_ALUOut_to_Reg_mux [31:0] $end
$var wire 2 V HI_LO_ALUOut [1:0] $end
$var wire 32 W HI [31:0] $end
$var wire 32 X Decodemux2to1 [31:0] $end
$var wire 4 Y ALUctl [3:0] $end
$var wire 32 Z ALU_result [31:0] $end
$var wire 64 [ ALU_MULTorDIV_result [63:0] $end
$var wire 2 \ ALUSrcB [1:0] $end
$var wire 1 ] ALUSrcA $end
$var wire 32 ^ ALUB [31:0] $end
$var wire 32 _ ALUAmux2to1 [31:0] $end
$var reg 32 ` ALUOut [31:0] $end
$var reg 32 a regA [31:0] $end
$var reg 32 b regB [31:0] $end
$scope module ALU $end
$var wire 32 c a [31:0] $end
$var wire 5 d instr10_6 [4:0] $end
$var wire 1 . zero $end
$var wire 1 0 unsign $end
$var wire 1 B fixed_shift $end
$var wire 1 D branch_equal $end
$var wire 32 e b [31:0] $end
$var wire 33 f B_unsign [32:0] $end
$var wire 33 g A_unsign [32:0] $end
$var wire 4 h ALUOperation [3:0] $end
$var reg 64 i ALU_MULTorDIV_result [63:0] $end
$var reg 32 j ALU_result [31:0] $end
$var reg 66 k ALU_temp_MULTorDIV_result [65:0] $end
$var reg 33 l ALU_temp_result [32:0] $end
$var reg 32 m quotient [31:0] $end
$var reg 33 n quotient_unsign [32:0] $end
$var reg 32 o remainder [31:0] $end
$var reg 33 p remainder_unsign [32:0] $end
$upscope $end
$scope module ALUmux4to1 $end
$var wire 6 q opcode [5:0] $end
$var wire 32 r register_b [31:0] $end
$var wire 16 s immediate [15:0] $end
$var wire 2 t ALUSrcB [1:0] $end
$var reg 32 u ALUB [31:0] $end
$var reg 32 v shift_2 [31:0] $end
$var reg 32 w sign_extended [31:0] $end
$upscope $end
$scope module HI_LO_ControlInst $end
$var wire 64 x ALU_MULTorDIV_result [63:0] $end
$var wire 1 + clk $end
$var wire 6 y func_code [5:0] $end
$var wire 6 z opcode [5:0] $end
$var wire 32 { regA [31:0] $end
$var wire 1 , reset $end
$var wire 3 | state [2:0] $end
$var wire 6 } final_code [5:0] $end
$var wire 2 ~ HI_LO_ALUOut [1:0] $end
$var reg 32 !" HI [31:0] $end
$var reg 32 "" LO [31:0] $end
$upscope $end
$scope module IR $end
$var wire 1 + clk $end
$var wire 1 , reset $end
$var wire 32 #" memdata [31:0] $end
$var wire 1 T IRWrite $end
$var reg 16 $" instr15_0 [15:0] $end
$var reg 5 %" instr20_16 [4:0] $end
$var reg 5 &" instr25_21 [4:0] $end
$var reg 6 '" instr31_26 [5:0] $end
$upscope $end
$scope module control $end
$var wire 6 (" func_code [5:0] $end
$var wire 6 )" opcode [5:0] $end
$var wire 5 *" rt_code [4:0] $end
$var wire 3 +" state [2:0] $end
$var reg 1 ] ALUSrcA $end
$var reg 2 ," ALUSrcB [1:0] $end
$var reg 4 -" ALUctl [3:0] $end
$var reg 1 T IRWrite $end
$var reg 1 S IorD $end
$var reg 1 R JUMP $end
$var reg 1 ' MemRead $end
$var reg 1 " MemWrite $end
$var reg 1 P MemtoReg $end
$var reg 2 ." PCSource [1:0] $end
$var reg 1 M PCWrite $end
$var reg 1 L PCWriteCond $end
$var reg 1 F PC_RETURN_ADDR $end
$var reg 1 J RegDst $end
$var reg 1 I RegWrite $end
$var reg 1 D branch_equal $end
$var reg 1 B fixed_shift $end
$var reg 1 0 unsign $end
$upscope $end
$scope module data_selection_endian_conversion $end
$var wire 32 /" ALUOut [31:0] $end
$var wire 1 S IorD $end
$var wire 1 + clk $end
$var wire 6 0" opcode [5:0] $end
$var wire 1 2 stall $end
$var wire 32 1" writedata_non_processed [31:0] $end
$var wire 3 2" state [2:0] $end
$var wire 32 3" readdata_non_processed [31:0] $end
$var wire 32 4" address [31:0] $end
$var wire 32 5" PC [31:0] $end
$var reg 4 6" byteenable [3:0] $end
$var reg 4 7" byteenable_read [3:0] $end
$var reg 32 8" readdata_processed [31:0] $end
$var reg 32 9" writedata_processed [31:0] $end
$upscope $end
$scope module pc1 $end
$var wire 1 :" PCWriteCond $end
$var wire 1 + clk $end
$var wire 1 M pcctl $end
$var wire 1 , reset $end
$var wire 1 2 stall $end
$var wire 3 ;" state [2:0] $end
$var wire 32 <" pc_prev [31:0] $end
$var reg 1 * active $end
$var reg 32 =" branch_reg [31:0] $end
$var reg 32 >" pc_branch_address_reg [31:0] $end
$var reg 32 ?" pc_new [31:0] $end
$upscope $end
$scope module pcmux $end
$var wire 32 @" ALUOut [31:0] $end
$var wire 32 A" ALU_result [31:0] $end
$var wire 2 B" PCSource [1:0] $end
$var wire 32 C" PC_in [31:0] $end
$var wire 16 D" instr15_0 [15:0] $end
$var wire 5 E" instr20_16 [4:0] $end
$var wire 5 F" instr25_21 [4:0] $end
$var reg 32 G" Jump_address [31:0] $end
$var reg 32 H" PC_out [31:0] $end
$upscope $end
$scope module regfile $end
$var wire 1 I RegWrite $end
$var wire 1 + clk $end
$var wire 32 I" instr [31:0] $end
$var wire 5 J" readR1 [4:0] $end
$var wire 5 K" readR2 [4:0] $end
$var wire 32 L" readdata1 [31:0] $end
$var wire 32 M" readdata2 [31:0] $end
$var wire 32 N" register_v0 [31:0] $end
$var wire 1 , reset $end
$var wire 5 O" writeR [4:0] $end
$var wire 32 P" writedata [31:0] $end
$var wire 3 Q" state [2:0] $end
$var wire 6 R" regimm_rt [5:0] $end
$var wire 6 S" opcode [5:0] $end
$var wire 6 T" func_code [5:0] $end
$scope begin $unm_blk_147 $end
$var integer 32 U" i [31:0] $end
$upscope $end
$upscope $end
$scope module stm $end
$var wire 1 + clk $end
$var wire 1 , reset $end
$var wire 1 2 stall $end
$var reg 3 V" state [2:0] $end
$upscope $end
$upscope $end
$scope module ram $end
$var wire 32 W" address [31:0] $end
$var wire 4 X" byteenable [3:0] $end
$var wire 1 + clk $end
$var wire 1 ' read $end
$var wire 1 " write $end
$var wire 32 Y" writedata [31:0] $end
$var wire 8 Z" writedata_3 [7:0] $end
$var wire 8 [" writedata_2 [7:0] $end
$var wire 8 \" writedata_1 [7:0] $end
$var wire 8 ]" writedata_0 [7:0] $end
$var wire 32 ^" word_address [31:0] $end
$var wire 32 _" readdata_temp [31:0] $end
$var wire 8 `" readdata_3 [7:0] $end
$var wire 8 a" readdata_2 [7:0] $end
$var wire 8 b" readdata_1 [7:0] $end
$var wire 8 c" readdata_0 [7:0] $end
$var reg 32 d" readdata [31:0] $end
$var reg 1 # waitrequest $end
$scope begin $unm_blk_160 $end
$var integer 32 e" i [31:0] $end
$upscope $end
$upscope $end
$upscope $end
$enddefinitions $end
#0
$dumpvars
b1100100 e"
bx d"
bx c"
bx b"
bx a"
bx `"
bx _"
bx ^"
bx ]"
bx \"
bx ["
bx Z"
bx Y"
bx X"
bx W"
bx V"
bx U"
bx T"
bx S"
b0xxxxx R"
bx Q"
bx P"
bx O"
bx N"
bx M"
bx L"
bx K"
bx J"
bx I"
bx H"
bx00 G"
bx F"
bx E"
bx D"
bx C"
bx B"
bx A"
bx @"
bx ?"
bx >"
bx ="
bx <"
bx ;"
0:"
bx 9"
bx 8"
bx 7"
bx 6"
bx 5"
bx 4"
bx 3"
bx 2"
bx 1"
bx 0"
bx /"
bx ."
b0 -"
b0 ,"
bx +"
bx *"
bx )"
bx ("
bx '"
bx &"
bx %"
bx $"
bx #"
bx ""
bx !"
bx ~
bx }
bx |
bx {
bx z
bx y
bx x
bx w
bx00 v
bx u
b0 t
bx s
bx r
bx q
bx p
bx o
bx n
bx m
bx l
bx k
bx j
bx i
b0 h
b0xxxxxxxxxxxxxxxxxxxxxxxxxxxxxxxx g
b0xxxxxxxxxxxxxxxxxxxxxxxxxxxxxxxx f
bx e
bx d
bx c
bx b
bx a
bx `
bx _
bx ^
1]
b0 \
bx [
bx Z
b0 Y
bx X
bx W
bx V
bx U
0T
0S
0R
bx Q
0P
bx O
bx N
0M
0L
bx K
0J
0I
bx H
bx G
0F
bx E
0D
bx C
0B
bx A
bx @
bx ?
bx >
bx =
bx <
bx ;
bx :
bx 9
bx 8
bx 7
bx 6
bx 5
bx 4
bx 3
02
bx 1
00
bx /
x.
b1 -
0,
0+
x*
bx )
bx (
0'
bx &
bx %
bx $
x#
0"
bx !
$end
#5
0#
1+
#10
1,
0+
#15
b0 H
b0 P"
b0 K
b101010 `"
b1101101 a"
b11 b"
b100100 c"
b0 U
b0 /"
0.
b0 V
b0 ~
b100100000000110110110100101010 _"
b0 G
b0 O"
b0 }
b10111111110000000000000000000100 :
b10111111110000000000000000000100 <"
b10111111110000000000000000000100 H"
b10111111110000000000000000000100 Z
b10111111110000000000000000000100 j
b10111111110000000000000000000100 A"
b0 ^"
b0 )"
b0 ("
b0 *"
b0 0"
b0 q
b0 6
b0 L"
b0 9
b0 J"
b0 5
b0 r
b0 M"
b0 8
b0 K"
b0 z
b0 y
b0 F"
b0 E"
b0 D"
b0 S"
b0 T"
b0 R"
b10111111110000000000000000000000 g
b10111111110000000000000000000000 _
b10111111110000000000000000000000 c
b100 f
b100 ^
b100 e
b100 u
b0 v
b0 w
b10111111110000000000000000000000 )
b10111111110000000000000000000000 E
b10111111110000000000000000000000 4"
b10111111110000000000000000000000 W"
b10110000000000000000000000000000 G"
b0 X
b0 I"
1'
b0 N
b0 ."
b0 B"
1M
b1 \
b1 t
b1 ,"
0]
b1111 (
b1111 C
b1111 6"
b1111 X"
b0 $
b0 3
b0 N"
b0 `
b0 @"
b0 b
b0 1"
b0 a
b0 {
b0 W
b0 !"
b0 Q
b0 ""
b0 ?
b0 s
b0 $"
b0 =
b0 %"
b0 <
b0 &"
b0 A
b0 ;
b0 '"
b0 >"
b10111111110000000000000000000000 O
b10111111110000000000000000000000 5"
b10111111110000000000000000000000 ?"
b10111111110000000000000000000000 C"
1*
b0 1
b0 |
b0 +"
b0 2"
b0 ;"
b0 Q"
b0 V"
b100000 U"
1+
#20
0,
0+
#25
b1000 `"
b0 a"
b0 b"
b0 c"
b11 G
b11 O"
b1001 }
b1000 _"
b10111111110000000000000000000100 :
b10111111110000000000000000000100 <"
b10111111110000000000000000000100 H"
b10110000000011011011010010101000 G"
b10111111110000000000000000000100 H
b10111111110000000000000000000100 P"
b1001 )"
b101010 ("
b11 *"
b1001 0"
b1001 q
b11 8
b11 K"
b1001 z
b101010 y
b11 E"
b110110100101010 D"
b1001 S"
b101010 T"
b11 R"
b0 f
b0 ^
b0 e
b0 u
b1 ^"
b10111111110000000000000000000100 Z
b10111111110000000000000000000100 j
b10111111110000000000000000000100 A"
b10111111110000000000000000000100 K
b1101 >
b10100 @
b10100 d
b100100000000110110110100101010 X
b100100000000110110110100101010 I"
1T
0'
0M
b10 \
b10 t
b10 ,"
0]
b10111111110000000000000000000100 )
b10111111110000000000000000000100 E
b10111111110000000000000000000100 4"
b10111111110000000000000000000100 W"
b10111111110000000000000000000100 g
b10111111110000000000000000000100 _
b10111111110000000000000000000100 c
b10111111110000000000000000000100 U
b10111111110000000000000000000100 /"
b100100000000110110110100101010 %
b100100000000110110110100101010 4
b100100000000110110110100101010 #"
b100100000000110110110100101010 8"
b1 1
b1 |
b1 +"
b1 2"
b1 ;"
b1 Q"
b1 V"
b10111111110000000000000000000100 O
b10111111110000000000000000000100 5"
b10111111110000000000000000000100 ?"
b10111111110000000000000000000100 C"
b1111 7"
b10111111110000000000000000000100 `
b10111111110000000000000000000100 @"
b101010011011010000001100100100 &
b101010011011010000001100100100 7
b101010011011010000001100100100 3"
b101010011011010000001100100100 d"
1+
#30
0+
#35
b110110100101010 :
b110110100101010 <"
b110110100101010 H"
b110110100101010 Z
b110110100101010 j
b110110100101010 A"
b0 g
b0 _
b0 c
b110110100101010 f
b110110100101010 ^
b110110100101010 e
b110110100101010 u
b11011010010101000 v
b110110100101010 w
0T
b10 \
b10 t
b10 ,"
1]
b110110100101010 ?
b110110100101010 s
b110110100101010 $"
b11 =
b11 %"
b100100000000110110110100101010 A
b1001 ;
b1001 '"
b10 1
b10 |
b10 +"
b10 2"
b10 ;"
b10 Q"
b10 V"
1+
#40
0+
#45
1.
b0 :
b0 <"
b0 H"
b0 Z
b0 j
b0 A"
b110110100101010 H
b110110100101010 P"
b0 f
b0 ^
b0 e
b0 u
b110110100101010 K
1I
b0 \
b0 t
b0 ,"
b110110100101010 U
b110110100101010 /"
b11 1
b11 |
b11 +"
b11 2"
b11 ;"
b11 Q"
b11 V"
b110110100101010 `
b110110100101010 @"
1+
#50
0+
#55
0.
b110110100101010 :
b110110100101010 <"
b110110100101010 H"
b0 H
b0 P"
b110110100101010 Z
b110110100101010 j
b110110100101010 A"
b0 K
b110110100101010 f
b110110100101010 ^
b110110100101010 e
b110110100101010 u
b0 U
b0 /"
0I
b110110100101010 5
b110110100101010 r
b110110100101010 M"
b0 `
b0 @"
b100 1
b100 |
b100 +"
b100 2"
b100 ;"
b100 Q"
b100 V"
1+
#60
b10 -
0+
#65
b10111111110000000000000000001000 :
b10111111110000000000000000001000 <"
b10111111110000000000000000001000 H"
b10111111110000000000000000001000 Z
b10111111110000000000000000001000 j
b10111111110000000000000000001000 A"
b110110100101010 H
b110110100101010 P"
b100 f
b100 ^
b100 e
b100 u
b10111111110000000000000000000100 g
b10111111110000000000000000000100 _
b10111111110000000000000000000100 c
b110110100101010 K
1'
1M
b1 \
b1 t
b1 ,"
0]
b110110100101010 U
b110110100101010 /"
b0 1
b0 |
b0 +"
b0 2"
b0 ;"
b0 Q"
b0 V"
b110110100101010 `
b110110100101010 @"
b110110100101010 b
b110110100101010 1"
1+
#70
0+
#75
b11100010 `"
b11110111 a"
b1100010 b"
b111000 c"
b10111111110000000000000000001000 H
b10111111110000000000000000001000 P"
b111000011000101111011111100010 _"
b0 G
b0 O"
b1000 }
b10111111110000000110110100110010 :
b10111111110000000110110100110010 <"
b10111111110000000110110100110010 H"
b10110000000000000000000000100000 G"
b10111111110000000000000000001000 K
b10 ^"
b10111111110000000110110100110010 Z
b10111111110000000110110100110010 j
b10111111110000000110110100110010 A"
b0 )"
b1000 ("
b0 *"
b0 0"
b0 q
b0 5
b0 r
b0 M"
b0 8
b0 K"
b0 z
b1000 y
b0 E"
b1000 D"
b0 S"
b1000 T"
b0 R"
b110110100101010 f
b110110100101010 ^
b110110100101010 e
b110110100101010 u
b0 @
b0 d
b0 >
b1000 %
b10111111110000000000000000001000 U
b10111111110000000000000000001000 /"
b10111111110000000000000000001000 )
b10111111110000000000000000001000 E
b10111111110000000000000000001000 4"
b10111111110000000000000000001000 W"
b10111111110000000000000000001000 g
b10111111110000000000000000001000 _
b10111111110000000000000000001000 c
b1000 X
b1000 I"
1T
0'
0M
b10 \
b10 t
b10 ,"
0]
b1000 4
b1000 #"
b1000 8"
b1000000000000000000000000000 &
b1000000000000000000000000000 7
b1000000000000000000000000000 3"
b1000000000000000000000000000 d"
b10111111110000000000000000001000 `
b10111111110000000000000000001000 @"
b10111111110000000000000000001000 O
b10111111110000000000000000001000 5"
b10111111110000000000000000001000 ?"
b10111111110000000000000000001000 C"
b1 1
b1 |
b1 +"
b1 2"
b1 ;"
b1 Q"
b1 V"
1+
#80
0+
#85
1.
b0 :
b0 <"
b0 H"
b10111111110000000110110100110010 H
b10111111110000000110110100110010 P"
b0 g
b0 _
b0 c
b0 Z
b0 j
b0 A"
b10111111110000000110110100110010 K
0T
b0 \
b0 t
b0 ,"
1]
b0 f
b0 ^
b0 e
b0 u
b100000 v
b1000 w
b10111111110000000110110100110010 U
b10111111110000000110110100110010 /"
b10 1
b10 |
b10 +"
b10 2"
b10 ;"
b10 Q"
b10 V"
b1000 ?
b1000 s
b1000 $"
b0 =
b0 %"
b1000 A
b0 ;
b0 '"
b10111111110000000110110100110010 `
b10111111110000000110110100110010 @"
b0 b
b0 1"
1+
#90
0+
#95
b0 H
b0 P"
b0 K
1:"
b0 U
b0 /"
1R
b1 N
b1 ."
b1 B"
b0 `
b0 @"
b11 1
b11 |
b11 +"
b11 2"
b11 ;"
b11 Q"
b11 V"
1+
#100
0+
#105
0:"
0R
b100 1
b100 |
b100 +"
b100 2"
b100 ;"
b100 Q"
b100 V"
b1 ="
1+
#110
b11 -
0+
#115
0.
b10111111110000000000000000001100 :
b10111111110000000000000000001100 <"
b10111111110000000000000000001100 H"
b10111111110000000000000000001100 Z
b10111111110000000000000000001100 j
b10111111110000000000000000001100 A"
b100 f
b100 ^
b100 e
b100 u
b10111111110000000000000000001000 g
b10111111110000000000000000001000 _
b10111111110000000000000000001000 c
1'
b0 N
b0 ."
b0 B"
1M
b1 \
b1 t
b1 ,"
0]
b0 1
b0 |
b0 +"
b0 2"
b0 ;"
b0 Q"
b0 V"
1+
#120
0+
#125
b0 `"
b0 a"
b0 b"
b0 c"
b10 G
b10 O"
b1110 }
b0 _"
b10111111110000000000000000010100 :
b10111111110000000000000000010100 <"
b10111111110000000000000000010100 H"
b10110001100010111101111110001000 G"
b10111111110000000000000000001100 H
b10111111110000000000000000001100 P"
b1110 )"
b100010 ("
b10 *"
b1110 0"
b1110 q
b110110100101010 6
b110110100101010 L"
b11 9
b11 J"
b10 8
b10 K"
b1110 z
b100010 y
b11 F"
b10 E"
b1111011111100010 D"
b1110 S"
b100010 T"
b10 R"
b1000 f
b1000 ^
b1000 e
b1000 u
b11 ^"
b10111111110000000000000000010100 Z
b10111111110000000000000000010100 j
b10111111110000000000000000010100 A"
b10111111110000000000000000001100 K
b11110 >
b11111 @
b11111 d
b111000011000101111011111100010 X
b111000011000101111011111100010 I"
1T
0'
0M
b10 \
b10 t
b10 ,"
0]
b10111111110000000000000000001100 )
b10111111110000000000000000001100 E
b10111111110000000000000000001100 4"
b10111111110000000000000000001100 W"
b10111111110000000000000000001100 g
b10111111110000000000000000001100 _
b10111111110000000000000000001100 c
b10111111110000000000000000001100 U
b10111111110000000000000000001100 /"
b111000011000101111011111100010 %
b111000011000101111011111100010 4
b111000011000101111011111100010 #"
b111000011000101111011111100010 8"
b1 1
b1 |
b1 +"
b1 2"
b1 ;"
b1 Q"
b1 V"
b10111111110000000000000000001100 O
b10111111110000000000000000001100 5"
b10111111110000000000000000001100 ?"
b10111111110000000000000000001100 C"
b10111111110000000000000000001100 `
b10111111110000000000000000001100 @"
b11100010111101110110001000111000 &
b11100010111101110110001000111000 7
b11100010111101110110001000111000 3"
b11100010111101110110001000111000 d"
1+
#130
0+
#135
b10111111110000000000000000010100 H
b10111111110000000000000000010100 P"
b1001101011001000 :
b1001101011001000 <"
b1001101011001000 H"
b10111111110000000000000000010100 K
b1001101011001000 Z
b1001101011001000 j
b1001101011001000 A"
b110110100101010 g
b110110100101010 _
b110110100101010 c
b10111111110000000000000000010100 U
b10111111110000000000000000010100 /"
b1111011111100010 f
b1111011111100010 ^
b1111011111100010 e
b1111011111100010 u
b111101111110001000 v
b1111011111100010 w
b1010 Y
b1010 h
b1010 -"
0T
b10 \
b10 t
b10 ,"
1]
b10111111110000000000000000010100 `
b10111111110000000000000000010100 @"
b110110100101010 a
b110110100101010 {
b1111011111100010 ?
b1111011111100010 s
b1111011111100010 $"
b10 =
b10 %"
b11 <
b11 &"
b111000011000101111011111100010 A
b1110 ;
b1110 '"
b10 1
b10 |
b10 +"
b10 2"
b10 ;"
b10 Q"
b10 V"
1+
#140
0+
#145
b110110100101010 :
b110110100101010 <"
b110110100101010 H"
b1001101011001000 H
b1001101011001000 P"
b110110100101010 Z
b110110100101010 j
b110110100101010 A"
b0 f
b0 ^
b0 e
b0 u
b1001101011001000 K
1I
b0 Y
b0 h
b0 -"
b0 \
b0 t
b0 ,"
b1001101011001000 U
b1001101011001000 /"
b11 1
b11 |
b11 +"
b11 2"
b11 ;"
b11 Q"
b11 V"
b1001101011001000 `
b1001101011001000 @"
1+
#150
0+
#155
b0 `"
b10000011111110010 :
b10000011111110010 <"
b10000011111110010 H"
b110110100101010 H
b110110100101010 P"
b10000011111110010 Z
b10000011111110010 j
b10000011111110010 A"
b110110100101010 K
b0 ^"
b0 _"
b1001101011001000 f
b1001101011001000 ^
b1001101011001000 e
b1001101011001000 u
b110110100101010 U
b110110100101010 /"
b0 )
b0 E
b0 4"
b0 W"
b1100010111101111110001000 G"
0I
b1001101011001000 5
b1001101011001000 r
b1001101011001000 M"
b1001101011001000 $
b1001101011001000 3
b1001101011001000 N"
b110110100101010 `
b110110100101010 @"
b0 ="
b0 O
b0 5"
b0 ?"
b0 C"
b100 1
b100 |
b100 +"
b100 2"
b100 ;"
b100 Q"
b100 V"
1+
#160
b100 -
0+
#165
b100 :
b100 <"
b100 H"
b100 Z
b100 j
b100 A"
b10000011111110010 H
b10000011111110010 P"
b100 f
b100 ^
b100 e
b100 u
b0 g
b0 _
b0 c
b10000011111110010 K
1'
1M
b1 \
b1 t
b1 ,"
0]
b10000011111110010 U
b10000011111110010 /"
b0 1
b0 |
b0 +"
b0 2"
b0 ;"
b0 Q"
b0 V"
0*
b10000011111110010 `
b10000011111110010 @"
b1001101011001000 b
b1001101011001000 1"
1+
#170
0+
#175
b100001 `"
b1011110 a"
b11110110 b"
b1111000 c"
b100 H
b100 P"
b1111000111101100101111000100001 _"
b0 G
b0 O"
b11111111111111111101111110001000 v
b11111111111111111111011111100010 w
b0 }
b11111111111111111111011111100110 :
b11111111111111111111011111100110 <"
b11111111111111111111011111100110 H"
b0 G"
b100 K
b1 ^"
b11111111111111111111011111100110 Z
b11111111111111111111011111100110 j
b11111111111111111111011111100110 A"
b0 )"
b0 ("
b0 *"
b0 0"
b0 q
b0 6
b0 L"
b0 9
b0 J"
b0 5
b0 r
b0 M"
b0 8
b0 K"
b0 z
b0 y
b0 F"
b0 E"
b0 D"
b0 S"
b0 T"
b0 R"
b11111111111111111111011111100010 f
b11111111111111111111011111100010 ^
b11111111111111111111011111100010 e
b11111111111111111111011111100010 u
b0 >
b0 @
b0 d
b0 %
b100 U
b100 /"
b100 )
b100 E
b100 4"
b100 W"
b100 g
b100 _
b100 c
b0 X
b0 I"
1T
0'
0M
b10 \
b10 t
b10 ,"
0]
b0 4
b0 #"
b0 8"
b0 &
b0 7
b0 3"
b0 d"
b100 `
b100 @"
b100 O
b100 5"
b100 ?"
b100 C"
b1 1
b1 |
b1 +"
b1 2"
b1 ;"
b1 Q"
b1 V"
1+
#180
0+
#185
1.
b0 :
b0 <"
b0 H"
b11111111111111111111011111100110 H
b11111111111111111111011111100110 P"
b0 g
b0 _
b0 c
b0 Z
b0 j
b0 A"
b11111111111111111111011111100110 K
b1011 Y
b1011 h
b1011 -"
1B
0T
b0 \
b0 t
b0 ,"
1]
b0 f
b0 ^
b0 e
b0 u
b0 v
b0 w
b11111111111111111111011111100110 U
b11111111111111111111011111100110 /"
b10 1
b10 |
b10 +"
b10 2"
b10 ;"
b10 Q"
b10 V"
b0 ?
b0 s
b0 $"
b0 =
b0 %"
b0 <
b0 &"
b0 A
b0 ;
b0 '"
b11111111111111111111011111100110 `
b11111111111111111111011111100110 @"
b0 b
b0 1"
b0 a
b0 {
1+
#190
0+
#195
b0 H
b0 P"
b0 K
b0 U
b0 /"
1J
1I
0B
b0 Y
b0 h
b0 -"
b0 `
b0 @"
b11 1
b11 |
b11 +"
b11 2"
b11 ;"
b11 Q"
b11 V"
1+
#200
0+
#205
0I
0J
b100 1
b100 |
b100 +"
b100 2"
b100 ;"
b100 Q"
b100 V"
1+
#210
b101 -
0+
#215
0.
b1000 :
b1000 <"
b1000 H"
b1000 Z
b1000 j
b1000 A"
b100 f
b100 ^
b100 e
b100 u
b100 g
b100 _
b100 c
1'
1M
b1 \
b1 t
b1 ,"
0]
b0 1
b0 |
b0 +"
b0 2"
b0 ;"
b0 Q"
b0 V"
1+
