test/CPU_testbench.vcd
$date
	Sat Dec 11 16:08:04 2021
$end
$version
	Icarus Verilog
$end
$timescale
	1s
$end
$scope module CPU_testbench $end
$var wire 32 ! writedata [31:0] $end
$var wire 1 " write $end
$var wire 1 # waitrequest $end
$var wire 32 $ register_v0 [31:0] $end
$var wire 32 % readdata_to_CPU [31:0] $end
$var wire 32 & readdata [31:0] $end
$var wire 1 ' read $end
$var wire 4 ( byteenable [3:0] $end
$var wire 32 ) address [31:0] $end
$var wire 1 * active $end
$var reg 1 + clk $end
$var reg 1 , reset $end
$var integer 32 - counter [31:0] $end
$scope module datapath $end
$var wire 1 + clk $end
$var wire 1 , reset $end
$var wire 1 . zero $end
$var wire 32 / writedata [31:0] $end
$var wire 1 " write $end
$var wire 1 # waitrequest $end
$var wire 1 0 unsign $end
$var wire 3 1 state [2:0] $end
$var wire 1 2 stall $end
$var wire 32 3 register_v0 [31:0] $end
$var wire 32 4 readdata_to_CPU [31:0] $end
$var wire 32 5 readdata2 [31:0] $end
$var wire 32 6 readdata1 [31:0] $end
$var wire 32 7 readdata [31:0] $end
$var wire 5 8 readR2 [4:0] $end
$var wire 5 9 readR1 [4:0] $end
$var wire 1 ' read $end
$var wire 32 : pc_in [31:0] $end
$var wire 6 ; instr31_26 [5:0] $end
$var wire 5 < instr25_21 [4:0] $end
$var wire 5 = instr20_16 [4:0] $end
$var wire 5 > instr15_11 [4:0] $end
$var wire 16 ? instr15_0 [15:0] $end
$var wire 5 @ instr10_6 [4:0] $end
$var wire 32 A full_instr [31:0] $end
$var wire 1 B fixed_shift $end
$var wire 4 C byteenable [3:0] $end
$var wire 1 D branch_equal $end
$var wire 32 E address [31:0] $end
$var wire 1 * active $end
$var wire 1 F ReturnToReg $end
$var wire 5 G Regmux2to1 [4:0] $end
$var wire 32 H RegWritemux2to1 [31:0] $end
$var wire 1 I RegWrite $end
$var wire 1 J RegDst $end
$var wire 32 K PC_RETURN_ADDR_ALOUT_MUX [31:0] $end
$var wire 1 L PCWriteCond $end
$var wire 1 M PCWrite $end
$var wire 2 N PCSource [1:0] $end
$var wire 32 O PC [31:0] $end
$var wire 1 P MemtoReg $end
$var wire 32 Q LO [31:0] $end
$var wire 1 R JUMP $end
$var wire 1 S IorD $end
$var wire 1 T IRWrite $end
$var wire 32 U HI_LO_ALUOut_to_Reg_mux [31:0] $end
$var wire 2 V HI_LO_ALUOut [1:0] $end
$var wire 32 W HI [31:0] $end
$var wire 32 X Decodemux2to1 [31:0] $end
$var wire 4 Y ALUctl [3:0] $end
$var wire 32 Z ALU_result [31:0] $end
$var wire 64 [ ALU_MULTorDIV_result [63:0] $end
$var wire 2 \ ALUSrcB [1:0] $end
$var wire 1 ] ALUSrcA $end
$var wire 32 ^ ALUB [31:0] $end
$var wire 32 _ ALUAmux2to1 [31:0] $end
$var reg 32 ` ALUOut [31:0] $end
$var reg 32 a regA [31:0] $end
$var reg 32 b regB [31:0] $end
$scope module ALU $end
$var wire 32 c a [31:0] $end
$var wire 5 d instr10_6 [4:0] $end
$var wire 1 . zero $end
$var wire 1 0 unsign $end
$var wire 1 B fixed_shift $end
$var wire 1 D branch_equal $end
$var wire 32 e b [31:0] $end
$var wire 33 f B_unsign [32:0] $end
$var wire 33 g A_unsign [32:0] $end
$var wire 4 h ALUOperation [3:0] $end
$var reg 64 i ALU_MULTorDIV_result [63:0] $end
$var reg 32 j ALU_result [31:0] $end
$var reg 66 k ALU_temp_MULTorDIV_result [65:0] $end
$var reg 33 l ALU_temp_result [32:0] $end
$var reg 32 m quotient [31:0] $end
$var reg 33 n quotient_unsign [32:0] $end
$var reg 32 o remainder [31:0] $end
$var reg 33 p remainder_unsign [32:0] $end
$upscope $end
$scope module ALUmux4to1 $end
$var wire 6 q opcode [5:0] $end
$var wire 32 r register_b [31:0] $end
$var wire 16 s immediate [15:0] $end
$var wire 2 t ALUSrcB [1:0] $end
$var reg 32 u ALUB [31:0] $end
$var reg 32 v shift_2 [31:0] $end
$var reg 32 w sign_extended [31:0] $end
$upscope $end
$scope module HI_LO_ControlInst $end
$var wire 64 x ALU_MULTorDIV_result [63:0] $end
$var wire 1 + clk $end
$var wire 6 y func_code [5:0] $end
$var wire 6 z opcode [5:0] $end
$var wire 32 { regA [31:0] $end
$var wire 1 , reset $end
$var wire 3 | state [2:0] $end
$var wire 6 } final_code [5:0] $end
$var wire 2 ~ HI_LO_ALUOut [1:0] $end
$var reg 32 !" HI [31:0] $end
$var reg 32 "" LO [31:0] $end
$upscope $end
$scope module IR $end
$var wire 1 + clk $end
$var wire 1 , reset $end
$var wire 32 #" memdata [31:0] $end
$var wire 1 T IRWrite $end
$var reg 16 $" instr15_0 [15:0] $end
$var reg 5 %" instr20_16 [4:0] $end
$var reg 5 &" instr25_21 [4:0] $end
$var reg 6 '" instr31_26 [5:0] $end
$upscope $end
$scope module control $end
$var wire 6 (" func_code [5:0] $end
$var wire 6 )" opcode [5:0] $end
$var wire 5 *" rt_code [4:0] $end
$var wire 3 +" state [2:0] $end
$var reg 1 ] ALUSrcA $end
$var reg 2 ," ALUSrcB [1:0] $end
$var reg 4 -" ALUctl [3:0] $end
$var reg 1 T IRWrite $end
$var reg 1 S IorD $end
$var reg 1 R JUMP $end
$var reg 1 ' MemRead $end
$var reg 1 " MemWrite $end
$var reg 1 P MemtoReg $end
$var reg 2 ." PCSource [1:0] $end
$var reg 1 M PCWrite $end
$var reg 1 L PCWriteCond $end
$var reg 1 F PC_RETURN_ADDR $end
$var reg 1 J RegDst $end
$var reg 1 I RegWrite $end
$var reg 1 D branch_equal $end
$var reg 1 B fixed_shift $end
$var reg 1 0 unsign $end
$upscope $end
$scope module data_selection_endian_conversion $end
$var wire 32 /" ALUOut [31:0] $end
$var wire 1 S IorD $end
$var wire 1 + clk $end
$var wire 6 0" opcode [5:0] $end
$var wire 1 2 stall $end
$var wire 32 1" writedata_non_processed [31:0] $end
$var wire 3 2" state [2:0] $end
$var wire 32 3" readdata_non_processed [31:0] $end
$var wire 32 4" address [31:0] $end
$var wire 32 5" PC [31:0] $end
$var reg 4 6" byteenable [3:0] $end
$var reg 4 7" byteenable_read [3:0] $end
$var reg 32 8" readdata_processed [31:0] $end
$var reg 32 9" writedata_processed [31:0] $end
$upscope $end
$scope module pc1 $end
$var wire 1 :" PCWriteCond $end
$var wire 1 + clk $end
$var wire 1 M pcctl $end
$var wire 1 , reset $end
$var wire 1 2 stall $end
$var wire 3 ;" state [2:0] $end
$var wire 32 <" pc_prev [31:0] $end
$var reg 1 * active $end
$var reg 32 =" branch_reg [31:0] $end
$var reg 32 >" pc_branch_address_reg [31:0] $end
$var reg 32 ?" pc_new [31:0] $end
$upscope $end
$scope module pcmux $end
$var wire 32 @" ALUOut [31:0] $end
$var wire 32 A" ALU_result [31:0] $end
$var wire 2 B" PCSource [1:0] $end
$var wire 32 C" PC_in [31:0] $end
$var wire 16 D" instr15_0 [15:0] $end
$var wire 5 E" instr20_16 [4:0] $end
$var wire 5 F" instr25_21 [4:0] $end
$var reg 32 G" Jump_address [31:0] $end
$var reg 32 H" PC_out [31:0] $end
$upscope $end
$scope module regfile $end
$var wire 1 I RegWrite $end
$var wire 1 + clk $end
$var wire 32 I" instr [31:0] $end
$var wire 5 J" readR1 [4:0] $end
$var wire 5 K" readR2 [4:0] $end
$var wire 32 L" readdata1 [31:0] $end
$var wire 32 M" readdata2 [31:0] $end
$var wire 32 N" register_v0 [31:0] $end
$var wire 1 , reset $end
$var wire 5 O" writeR [4:0] $end
$var wire 32 P" writedata [31:0] $end
$var wire 3 Q" state [2:0] $end
$var wire 6 R" regimm_rt [5:0] $end
$var wire 6 S" opcode [5:0] $end
$var wire 6 T" func_code [5:0] $end
$scope begin $unm_blk_147 $end
$var integer 32 U" i [31:0] $end
$upscope $end
$upscope $end
$scope module stm $end
$var wire 1 + clk $end
$var wire 1 , reset $end
$var wire 1 2 stall $end
$var reg 3 V" state [2:0] $end
$upscope $end
$upscope $end
$scope module ram $end
$var wire 32 W" address [31:0] $end
$var wire 4 X" byteenable [3:0] $end
$var wire 1 + clk $end
$var wire 1 ' read $end
$var wire 1 " write $end
$var wire 32 Y" writedata [31:0] $end
$var wire 8 Z" writedata_3 [7:0] $end
$var wire 8 [" writedata_2 [7:0] $end
$var wire 8 \" writedata_1 [7:0] $end
$var wire 8 ]" writedata_0 [7:0] $end
$var wire 32 ^" word_address [31:0] $end
$var wire 32 _" readdata_temp [31:0] $end
$var wire 8 `" readdata_3 [7:0] $end
$var wire 8 a" readdata_2 [7:0] $end
$var wire 8 b" readdata_1 [7:0] $end
$var wire 8 c" readdata_0 [7:0] $end
$var reg 32 d" readdata [31:0] $end
$var reg 1 # waitrequest $end
$scope begin $unm_blk_160 $end
$var integer 32 e" i [31:0] $end
$upscope $end
$upscope $end
$upscope $end
$enddefinitions $end
#0
$dumpvars
b1100100 e"
bx d"
bx c"
bx b"
bx a"
bx `"
bx _"
bx ^"
bx ]"
bx \"
bx ["
bx Z"
bx Y"
bx X"
bx W"
bx V"
bx U"
bx T"
bx S"
b0xxxxx R"
bx Q"
bx P"
bx O"
bx N"
bx M"
bx L"
bx K"
bx J"
bx I"
bx H"
bx00 G"
bx F"
bx E"
bx D"
bx C"
bx B"
bx A"
bx @"
bx ?"
bx >"
bx ="
bx <"
bx ;"
0:"
bx 9"
bx 8"
bx 7"
bx 6"
bx 5"
bx 4"
bx 3"
bx 2"
bx 1"
bx 0"
bx /"
bx ."
b0 -"
b0 ,"
bx +"
bx *"
bx )"
bx ("
bx '"
bx &"
bx %"
bx $"
bx #"
bx ""
bx !"
bx ~
bx }
bx |
bx {
bx z
bx y
bx x
bx w
bx00 v
bx u
b0 t
bx s
bx r
bx q
bx p
bx o
bx n
bx m
bx l
bx k
bx j
bx i
b0 h
b0xxxxxxxxxxxxxxxxxxxxxxxxxxxxxxxx g
b0xxxxxxxxxxxxxxxxxxxxxxxxxxxxxxxx f
bx e
bx d
bx c
bx b
bx a
bx `
bx _
bx ^
1]
b0 \
bx [
bx Z
b0 Y
bx X
bx W
bx V
bx U
0T
0S
0R
bx Q
0P
bx O
bx N
0M
0L
bx K
0J
0I
bx H
bx G
0F
bx E
0D
bx C
0B
bx A
bx @
bx ?
bx >
bx =
bx <
bx ;
bx :
bx 9
bx 8
bx 7
bx 6
bx 5
bx 4
bx 3
02
bx 1
00
bx /
x.
b1 -
0,
0+
x*
bx )
bx (
0'
bx &
bx %
bx $
x#
0"
bx !
$end
#5
0#
1+
#10
1,
0+
#15
b0 H
b0 P"
b0 K
b11011101 `"
b10110010 a"
b11 b"
b100100 c"
b0 U
b0 /"
0.
b0 V
b0 ~
b100100000000111011001011011101 _"
b0 G
b0 O"
b0 }
b10111111110000000000000000000100 :
b10111111110000000000000000000100 <"
b10111111110000000000000000000100 H"
b10111111110000000000000000000100 Z
b10111111110000000000000000000100 j
b10111111110000000000000000000100 A"
b0 ^"
b0 )"
b0 ("
b0 *"
b0 0"
b0 q
b0 6
b0 L"
b0 9
b0 J"
b0 5
b0 r
b0 M"
b0 8
b0 K"
b0 z
b0 y
b0 F"
b0 E"
b0 D"
b0 S"
b0 T"
b0 R"
b10111111110000000000000000000000 g
b10111111110000000000000000000000 _
b10111111110000000000000000000000 c
b100 f
b100 ^
b100 e
b100 u
b0 v
b0 w
b10111111110000000000000000000000 )
b10111111110000000000000000000000 E
b10111111110000000000000000000000 4"
b10111111110000000000000000000000 W"
b10110000000000000000000000000000 G"
b0 X
b0 I"
1'
b0 N
b0 ."
b0 B"
1M
b1 \
b1 t
b1 ,"
0]
b1111 (
b1111 C
b1111 6"
b1111 X"
b0 $
b0 3
b0 N"
b0 `
b0 @"
b0 b
b0 1"
b0 a
b0 {
b0 W
b0 !"
b0 Q
b0 ""
b0 ?
b0 s
b0 $"
b0 =
b0 %"
b0 <
b0 &"
b0 A
b0 ;
b0 '"
b0 >"
b10111111110000000000000000000000 O
b10111111110000000000000000000000 5"
b10111111110000000000000000000000 ?"
b10111111110000000000000000000000 C"
1*
b0 1
b0 |
b0 +"
b0 2"
b0 ;"
b0 Q"
b0 V"
b100000 U"
1+
#20
0,
0+
#25
b10100 `"
b0 a"
b100 b"
b11 G
b11 O"
b1001 }
b100100000001000000000000010100 _"
b10111111110000000000000000000100 :
b10111111110000000000000000000100 <"
b10111111110000000000000000000100 H"
b10110000000011101100101101110100 G"
b10111111110000000000000000000100 H
b10111111110000000000000000000100 P"
b1001 )"
b11101 ("
b11 *"
b1001 0"
b1001 q
b11 8
b11 K"
b1001 z
b11101 y
b11 E"
b1011001011011101 D"
b1001 S"
b11101 T"
b11 R"
b0 f
b0 ^
b0 e
b0 u
b1 ^"
b10111111110000000000000000000100 Z
b10111111110000000000000000000100 j
b10111111110000000000000000000100 A"
b10111111110000000000000000000100 K
b10110 >
b1011 @
b1011 d
b100100000000111011001011011101 X
b100100000000111011001011011101 I"
1T
0'
0M
b10 \
b10 t
b10 ,"
0]
b10111111110000000000000000000100 )
b10111111110000000000000000000100 E
b10111111110000000000000000000100 4"
b10111111110000000000000000000100 W"
b10111111110000000000000000000100 g
b10111111110000000000000000000100 _
b10111111110000000000000000000100 c
b10111111110000000000000000000100 U
b10111111110000000000000000000100 /"
b100100000000111011001011011101 %
b100100000000111011001011011101 4
b100100000000111011001011011101 #"
b100100000000111011001011011101 8"
b1 1
b1 |
b1 +"
b1 2"
b1 ;"
b1 Q"
b1 V"
b10111111110000000000000000000100 O
b10111111110000000000000000000100 5"
b10111111110000000000000000000100 ?"
b10111111110000000000000000000100 C"
b1111 7"
b10111111110000000000000000000100 `
b10111111110000000000000000000100 @"
b11011101101100100000001100100100 &
b11011101101100100000001100100100 7
b11011101101100100000001100100100 3"
b11011101101100100000001100100100 d"
1+
#30
0+
#35
b11111111111111111011001011011101 :
b11111111111111111011001011011101 <"
b11111111111111111011001011011101 H"
b11111111111111111011001011011101 Z
b11111111111111111011001011011101 j
b11111111111111111011001011011101 A"
b0 g
b0 _
b0 c
b11111111111111111011001011011101 f
b11111111111111111011001011011101 ^
b11111111111111111011001011011101 e
b11111111111111111011001011011101 u
b11111111111111101100101101110100 v
b11111111111111111011001011011101 w
0T
b10 \
b10 t
b10 ,"
1]
b1011001011011101 ?
b1011001011011101 s
b1011001011011101 $"
b11 =
b11 %"
b100100000000111011001011011101 A
b1001 ;
b1001 '"
b10 1
b10 |
b10 +"
b10 2"
b10 ;"
b10 Q"
b10 V"
1+
#40
0+
#45
1.
b0 :
b0 <"
b0 H"
b0 Z
b0 j
b0 A"
b11111111111111111011001011011101 H
b11111111111111111011001011011101 P"
b0 f
b0 ^
b0 e
b0 u
b11111111111111111011001011011101 K
1I
b0 \
b0 t
b0 ,"
b11111111111111111011001011011101 U
b11111111111111111011001011011101 /"
b11 1
b11 |
b11 +"
b11 2"
b11 ;"
b11 Q"
b11 V"
b11111111111111111011001011011101 `
b11111111111111111011001011011101 @"
1+
#50
0+
#55
0.
b11111111111111111011001011011101 :
b11111111111111111011001011011101 <"
b11111111111111111011001011011101 H"
b0 H
b0 P"
b11111111111111111011001011011101 Z
b11111111111111111011001011011101 j
b11111111111111111011001011011101 A"
b0 K
b11111111111111111011001011011101 f
b11111111111111111011001011011101 ^
b11111111111111111011001011011101 e
b11111111111111111011001011011101 u
b0 U
b0 /"
0I
b11111111111111111011001011011101 5
b11111111111111111011001011011101 r
b11111111111111111011001011011101 M"
b0 `
b0 @"
b100 1
b100 |
b100 +"
b100 2"
b100 ;"
b100 Q"
b100 V"
1+
#60
b10 -
0+
#65
b10111111110000000000000000001000 :
b10111111110000000000000000001000 <"
b10111111110000000000000000001000 H"
b10111111110000000000000000001000 Z
b10111111110000000000000000001000 j
b10111111110000000000000000001000 A"
b11111111111111111011001011011101 H
b11111111111111111011001011011101 P"
b100 f
b100 ^
b100 e
b100 u
b10111111110000000000000000000100 g
b10111111110000000000000000000100 _
b10111111110000000000000000000100 c
b11111111111111111011001011011101 K
1'
1M
b1 \
b1 t
b1 ,"
0]
b11111111111111111011001011011101 U
b11111111111111111011001011011101 /"
b0 1
b0 |
b0 +"
b0 2"
b0 ;"
b0 Q"
b0 V"
b11111111111111111011001011011101 `
b11111111111111111011001011011101 @"
b11111111111111111011001011011101 b
b11111111111111111011001011011101 1"
1+
#70
0+
#75
b0 `"
b10000011 b"
b10100100 c"
b10111111110000000000000000001000 H
b10111111110000000000000000001000 P"
b10100100100000110000000000000000 _"
b100 G
b100 O"
b10111111101111111011001011100101 :
b10111111101111111011001011100101 <"
b10111111101111111011001011100101 H"
b10110000000100000000000001010000 G"
b10111111110000000000000000001000 K
b10 ^"
b10111111101111111011001011100101 Z
b10111111101111111011001011100101 j
b10111111101111111011001011100101 A"
b10100 ("
b100 *"
b0 5
b0 r
b0 M"
b100 8
b100 K"
b10100 y
b100 E"
b10100 D"
b10100 T"
b100 R"
b11111111111111111011001011011101 f
b11111111111111111011001011011101 ^
b11111111111111111011001011011101 e
b11111111111111111011001011011101 u
b0 >
b0 @
b0 d
b100100000001000000000000010100 %
b10111111110000000000000000001000 U
b10111111110000000000000000001000 /"
b10111111110000000000000000001000 )
b10111111110000000000000000001000 E
b10111111110000000000000000001000 4"
b10111111110000000000000000001000 W"
b10111111110000000000000000001000 g
b10111111110000000000000000001000 _
b10111111110000000000000000001000 c
b100100000001000000000000010100 X
b100100000001000000000000010100 I"
1T
0'
0M
b10 \
b10 t
b10 ,"
0]
b100100000001000000000000010100 4
b100100000001000000000000010100 #"
b100100000001000000000000010100 8"
b10100000000000000010000100100 &
b10100000000000000010000100100 7
b10100000000000000010000100100 3"
b10100000000000000010000100100 d"
b10111111110000000000000000001000 `
b10111111110000000000000000001000 @"
b10111111110000000000000000001000 O
b10111111110000000000000000001000 5"
b10111111110000000000000000001000 ?"
b10111111110000000000000000001000 C"
b1 1
b1 |
b1 +"
b1 2"
b1 ;"
b1 Q"
b1 V"
1+
#80
0+
#85
b10100 :
b10100 <"
b10100 H"
b10111111101111111011001011100101 H
b10111111101111111011001011100101 P"
b0 g
b0 _
b0 c
b10100 Z
b10100 j
b10100 A"
b10111111101111111011001011100101 K
0T
b10 \
b10 t
b10 ,"
1]
b10100 f
b10100 ^
b10100 e
b10100 u
b1010000 v
b10100 w
b10111111101111111011001011100101 U
b10111111101111111011001011100101 /"
b10 1
b10 |
b10 +"
b10 2"
b10 ;"
b10 Q"
b10 V"
b10100 ?
b10100 s
b10100 $"
b100100000001000000000000010100 A
b100 =
b100 %"
b10111111101111111011001011100101 `
b10111111101111111011001011100101 @"
b0 b
b0 1"
1+
#90
0+
#95
1.
b0 :
b0 <"
b0 H"
b10100 H
b10100 P"
b0 Z
b0 j
b0 A"
b10100 K
b0 f
b0 ^
b0 e
b0 u
b10100 U
b10100 /"
1I
b0 \
b0 t
b0 ,"
b10100 `
b10100 @"
b11 1
b11 |
b11 +"
b11 2"
b11 ;"
b11 Q"
b11 V"
1+
#100
0+
#105
0.
b10100 :
b10100 <"
b10100 H"
b0 H
b0 P"
b10100 Z
b10100 j
b10100 A"
b0 K
b10100 f
b10100 ^
b10100 e
b10100 u
0I
b0 U
b0 /"
b10100 5
b10100 r
b10100 M"
b100 1
b100 |
b100 +"
b100 2"
b100 ;"
b100 Q"
b100 V"
b0 `
b0 @"
1+
#110
b11 -
0+
#115
b10111111110000000000000000001100 :
b10111111110000000000000000001100 <"
b10111111110000000000000000001100 H"
b10100 H
b10100 P"
b10111111110000000000000000001100 Z
b10111111110000000000000000001100 j
b10111111110000000000000000001100 A"
b10100 K
b100 f
b100 ^
b100 e
b100 u
b10111111110000000000000000001000 g
b10111111110000000000000000001000 _
b10111111110000000000000000001000 c
b10100 U
b10100 /"
1'
1M
b1 \
b1 t
b1 ,"
0]
b10100 `
b10100 @"
b10100 b
b10100 1"
b0 1
b0 |
b0 +"
b0 2"
b0 ;"
b0 Q"
b0 V"
1+
#120
0+
#125
b1000 `"
b0 b"
b0 c"
b11 G
b11 O"
b101001 }
b1000 _"
b10111111110000000000000000100000 :
b10111111110000000000000000100000 <"
b10111111110000000000000000100000 H"
b10110010000011000000000000000000 G"
b10111111110000000000000000001100 H
b10111111110000000000000000001100 P"
b101001 )"
b0 ("
b11 *"
b101001 0"
b101001 q
b10100 6
b10100 L"
b100 9
b100 J"
b11111111111111111011001011011101 5
b11111111111111111011001011011101 r
b11111111111111111011001011011101 M"
b11 8
b11 K"
b101001 z
b0 y
b100 F"
b11 E"
b0 D"
b101001 S"
b0 T"
b11 R"
b10100 f
b10100 ^
b10100 e
b10100 u
b11 ^"
b10111111110000000000000000100000 Z
b10111111110000000000000000100000 j
b10111111110000000000000000100000 A"
b10111111110000000000000000001100 K
b10100100100000110000000000000000 X
b10100100100000110000000000000000 I"
1T
0'
0M
b10 \
b10 t
b10 ,"
0]
b10111111110000000000000000001100 )
b10111111110000000000000000001100 E
b10111111110000000000000000001100 4"
b10111111110000000000000000001100 W"
b10111111110000000000000000001100 g
b10111111110000000000000000001100 _
b10111111110000000000000000001100 c
b10111111110000000000000000001100 U
b10111111110000000000000000001100 /"
b10100100100000110000000000000000 %
b10100100100000110000000000000000 4
b10100100100000110000000000000000 #"
b10100100100000110000000000000000 8"
b1 1
b1 |
b1 +"
b1 2"
b1 ;"
b1 Q"
b1 V"
b10111111110000000000000000001100 O
b10111111110000000000000000001100 5"
b10111111110000000000000000001100 ?"
b10111111110000000000000000001100 C"
b10111111110000000000000000001100 `
b10111111110000000000000000001100 @"
b1000001110100100 &
b1000001110100100 7
b1000001110100100 3"
b1000001110100100 d"
1+
#130
0+
#135
b10111111110000000000000000100000 H
b10111111110000000000000000100000 P"
b10100 :
b10100 <"
b10100 H"
b11011101 \"
b10110010 ]"
b10111111110000000000000000100000 K
b10100 Z
b10100 j
b10100 A"
b10100 g
b10100 _
b10100 c
b10111111110000000000000000100000 U
b10111111110000000000000000100000 /"
b0 f
b0 ^
b0 e
b0 u
b0 v
b0 w
0T
b10 \
b10 t
b10 ,"
1]
bx1101110110110010 !
bx1101110110110010 /
bx1101110110110010 9"
bx1101110110110010 Y"
b10111111110000000000000000100000 `
b10111111110000000000000000100000 @"
b11111111111111111011001011011101 b
b11111111111111111011001011011101 1"
b10100 a
b10100 {
b0 ?
b0 s
b0 $"
b11 =
b11 %"
b100 <
b100 &"
b10100100100000110000000000000000 A
b101001 ;
b101001 '"
b10 1
b10 |
b10 +"
b10 2"
b10 ;"
b10 Q"
b10 V"
1+
#140
0+
#145
b10001 b"
b11111111111111111011001011110001 :
b11111111111111111011001011110001 <"
b11111111111111111011001011110001 H"
b101 ^"
b100010010001000110011 _"
b11111111111111111011001011110001 Z
b11111111111111111011001011110001 j
b11111111111111111011001011110001 A"
b0 `"
b110011 Z"
b100010 ["
b10100 H
b10100 P"
b10100 )
b10100 E
b10100 4"
b10100 W"
b11111111111111111011001011011101 f
b11111111111111111011001011011101 ^
b11111111111111111011001011011101 e
b11111111111111111011001011011101 u
b10100 K
1"
1S
b0 \
b0 t
b0 ,"
b11 (
b11 C
b11 6"
b11 X"
b10100 U
b10100 /"
b11 1
b11 |
b11 +"
b11 2"
b11 ;"
b11 Q"
b11 V"
b10100 `
b10100 @"
1+
#150
0+
#155
b1000 Z"
b0 ["
b0 b"
b0 c"
b11111111111111111011001011110001 H
b11111111111111111011001011110001 P"
b11 ^"
b11111111111111111011001011110001 K
b10111111110000000000000000001100 )
b10111111110000000000000000001100 E
b10111111110000000000000000001100 4"
b10111111110000000000000000001100 W"
b1000 _"
b11111111111111111011001011110001 U
b11111111111111111011001011110001 /"
0"
0S
b11111111111111111011001011110001 `
b11111111111111111011001011110001 @"
b11 7"
b100 1
b100 |
b100 +"
b100 2"
b100 ;"
b100 Q"
b100 V"
1+
#160
b100 -
0+
#165
b10111111110000000000000000010000 :
b10111111110000000000000000010000 <"
b10111111110000000000000000010000 H"
b10111111110000000000000000010000 Z
b10111111110000000000000000010000 j
b10111111110000000000000000010000 A"
b1000 `"
bx Z"
bx ["
b100 f
b100 ^
b100 e
b100 u
b10111111110000000000000000001100 g
b10111111110000000000000000001100 _
b10111111110000000000000000001100 c
1'
1M
b1 \
b1 t
b1 ,"
0]
b1111 (
b1111 C
b1111 6"
b1111 X"
b0 1
b0 |
b0 +"
b0 2"
b0 ;"
b0 Q"
b0 V"
1+
#170
0+
#175
b0 `"
b10000010 b"
b10001100 c"
b10111111110000000000000000010000 H
b10111111110000000000000000010000 P"
b10001100100000100000000000000000 _"
b0 G
b0 O"
b1000 }
b10110000000000000000000000100000 G"
b10111111110000000000000000010000 K
b100 ^"
b0 )"
b1000 ("
b0 *"
b0 0"
b0 q
b0 6
b0 L"
b0 9
b0 J"
b0 5
b0 r
b0 M"
b0 8
b0 K"
b0 z
b1000 y
b0 F"
b0 E"
b1000 D"
b0 S"
b1000 T"
b0 R"
b0 f
b0 ^
b0 e
b0 u
b1000 %
b10111111110000000000000000010000 U
b10111111110000000000000000010000 /"
b10111111110000000000000000010000 )
b10111111110000000000000000010000 E
b10111111110000000000000000010000 4"
b10111111110000000000000000010000 W"
b10111111110000000000000000010000 g
b10111111110000000000000000010000 _
b10111111110000000000000000010000 c
b1000 X
b1000 I"
1T
0'
0M
b10 \
b10 t
b10 ,"
0]
b1000 4
b1000 #"
b1000 8"
b1000000000000000000000000000 &
b1000000000000000000000000000 7
b1000000000000000000000000000 3"
b1000000000000000000000000000 d"
b10111111110000000000000000010000 `
b10111111110000000000000000010000 @"
b1111 7"
b10111111110000000000000000010000 O
b10111111110000000000000000010000 5"
b10111111110000000000000000010000 ?"
b10111111110000000000000000010000 C"
b1 1
b1 |
b1 +"
b1 2"
b1 ;"
b1 Q"
b1 V"
1+
#180
0+
#185
1.
b0 :
b0 <"
b0 H"
b0 g
b0 _
b0 c
b0 Z
b0 j
b0 A"
0T
b0 \
b0 t
b0 ,"
1]
b0 f
b0 ^
b0 e
b0 u
b100000 v
b1000 w
b10 1
b10 |
b10 +"
b10 2"
b10 ;"
b10 Q"
b10 V"
b1000 ?
b1000 s
b1000 $"
b0 =
b0 %"
b0 <
b0 &"
b1000 A
b0 ;
b0 '"
b0 b
b0 1"
b0 a
b0 {
1+
#190
0+
#195
b0 H
b0 P"
b0 K
1:"
b0 U
b0 /"
1R
b1 N
b1 ."
b1 B"
b0 `
b0 @"
b11 1
b11 |
b11 +"
b11 2"
b11 ;"
b11 Q"
b11 V"
1+
#200
0+
#205
0:"
0R
b100 1
b100 |
b100 +"
b100 2"
b100 ;"
b100 Q"
b100 V"
b1 ="
1+
#210
b101 -
0+
#215
0.
b10111111110000000000000000010100 :
b10111111110000000000000000010100 <"
b10111111110000000000000000010100 H"
b10111111110000000000000000010100 Z
b10111111110000000000000000010100 j
b10111111110000000000000000010100 A"
b100 f
b100 ^
b100 e
b100 u
b10111111110000000000000000010000 g
b10111111110000000000000000010000 _
b10111111110000000000000000010000 c
1'
b0 N
b0 ."
b0 B"
1M
b1 \
b1 t
b1 ,"
0]
b0 1
b0 |
b0 +"
b0 2"
b0 ;"
b0 Q"
b0 V"
1+
#220
0+
#225
b0 b"
b0 c"
b10 G
b10 O"
b100011 }
b0 _"
b10111111110000000000000000011100 :
b10111111110000000000000000011100 <"
b10111111110000000000000000011100 H"
b10110010000010000000000000000000 G"
b10111111110000000000000000010100 H
b10111111110000000000000000010100 P"
b100011 )"
b0 ("
b10 *"
b100011 0"
b100011 q
b10100 6
b10100 L"
b100 9
b100 J"
b10 8
b10 K"
b100011 z
b0 y
b100 F"
b10 E"
b0 D"
b100011 S"
b0 T"
b10 R"
b1000 f
b1000 ^
b1000 e
b1000 u
b101 ^"
b10111111110000000000000000011100 Z
b10111111110000000000000000011100 j
b10111111110000000000000000011100 A"
b10111111110000000000000000010100 K
b10001100100000100000000000000000 X
b10001100100000100000000000000000 I"
1T
0'
0M
b10 \
b10 t
b10 ,"
0]
b10111111110000000000000000010100 )
b10111111110000000000000000010100 E
b10111111110000000000000000010100 4"
b10111111110000000000000000010100 W"
b10111111110000000000000000010100 g
b10111111110000000000000000010100 _
b10111111110000000000000000010100 c
b10111111110000000000000000010100 U
b10111111110000000000000000010100 /"
b10001100100000100000000000000000 %
b10001100100000100000000000000000 4
b10001100100000100000000000000000 #"
b10001100100000100000000000000000 8"
b1 1
b1 |
b1 +"
b1 2"
b1 ;"
b1 Q"
b1 V"
b10111111110000000000000000010100 O
b10111111110000000000000000010100 5"
b10111111110000000000000000010100 ?"
b10111111110000000000000000010100 C"
b10111111110000000000000000010100 `
b10111111110000000000000000010100 @"
b1000001010001100 &
b1000001010001100 7
b1000001010001100 3"
b1000001010001100 d"
1+
#230
0+
#235
b10111111110000000000000000011100 H
b10111111110000000000000000011100 P"
b10100 :
b10100 <"
b10100 H"
b10111111110000000000000000011100 K
b10100 Z
b10100 j
b10100 A"
b10100 g
b10100 _
b10100 c
b10111111110000000000000000011100 U
b10111111110000000000000000011100 /"
b0 f
b0 ^
b0 e
b0 u
b0 v
b0 w
0T
b10 \
b10 t
b10 ,"
1]
b10111111110000000000000000011100 `
b10111111110000000000000000011100 @"
b10100 a
b10100 {
b0 ?
b0 s
b0 $"
b10 =
b10 %"
b100 <
b100 &"
b10001100100000100000000000000000 A
b100011 ;
b100011 '"
b10 1
b10 |
b10 +"
b10 2"
b10 ;"
b10 Q"
b10 V"
1+
#240
0+
#245
b110011 `"
b100010 a"
b11011101 b"
b10110010 c"
b10110010110111010010001000110011 _"
b10100 H
b10100 P"
b10100 )
b10100 E
b10100 4"
b10100 W"
b10100 K
1'
1S
b0 \
b0 t
b0 ,"
b10100 U
b10100 /"
b11 1
b11 |
b11 +"
b11 2"
b11 ;"
b11 Q"
b11 V"
b10100 `
b10100 @"
1+
#250
0+
