rtl/mips_cpu/CPU_testbench.vcd
$date
	Fri Dec 10 17:01:24 2021
$end
$version
	Icarus Verilog
$end
$timescale
	1s
$end
$scope module CPU_testbench $end
$var wire 32 ! writedata [31:0] $end
$var wire 1 " write $end
$var wire 1 # waitrequest $end
$var wire 32 $ register_v0 [31:0] $end
$var wire 32 % readdata_to_CPU [31:0] $end
$var wire 32 & readdata [31:0] $end
$var wire 1 ' read $end
$var wire 4 ( byteenable [3:0] $end
$var wire 32 ) address [31:0] $end
$var wire 1 * active $end
$var reg 1 + clk $end
$var reg 1 , reset $end
$var integer 32 - counter [31:0] $end
$scope module datapath $end
$var wire 1 + clk $end
$var wire 1 , reset $end
$var wire 1 . zero $end
$var wire 32 / writedata [31:0] $end
$var wire 1 " write $end
$var wire 1 # waitrequest $end
$var wire 1 0 unsign $end
$var wire 3 1 state [2:0] $end
$var wire 1 2 stall $end
$var wire 32 3 register_v0 [31:0] $end
$var wire 32 4 readdata_to_CPU [31:0] $end
$var wire 32 5 readdata2 [31:0] $end
$var wire 32 6 readdata1 [31:0] $end
$var wire 32 7 readdata [31:0] $end
$var wire 5 8 readR2 [4:0] $end
$var wire 5 9 readR1 [4:0] $end
$var wire 1 ' read $end
$var wire 32 : pc_in [31:0] $end
$var wire 6 ; instr31_26 [5:0] $end
$var wire 5 < instr25_21 [4:0] $end
$var wire 5 = instr20_16 [4:0] $end
$var wire 5 > instr15_11 [4:0] $end
$var wire 16 ? instr15_0 [15:0] $end
$var wire 5 @ instr10_6 [4:0] $end
$var wire 32 A full_instr [31:0] $end
$var wire 1 B fixed_shift $end
$var wire 4 C byteenable [3:0] $end
$var wire 1 D branch_equal $end
$var wire 32 E address [31:0] $end
$var wire 1 * active $end
$var wire 1 F ReturnToReg $end
$var wire 5 G Regmux2to1 [4:0] $end
$var wire 32 H RegWritemux2to1 [31:0] $end
$var wire 1 I RegWrite $end
$var wire 1 J RegDst $end
$var wire 32 K PC_RETURN_ADDR_ALOUT_MUX [31:0] $end
$var wire 1 L PCWriteCond $end
$var wire 1 M PCWrite $end
$var wire 2 N PCSource [1:0] $end
$var wire 32 O PC [31:0] $end
$var wire 1 P MemtoReg $end
$var wire 32 Q LO [31:0] $end
$var wire 1 R JUMP $end
$var wire 1 S IorD $end
$var wire 1 T IRWrite $end
$var wire 32 U HI_LO_ALUOut_to_Reg_mux [31:0] $end
$var wire 2 V HI_LO_ALUOut [1:0] $end
$var wire 32 W HI [31:0] $end
$var wire 32 X Decodemux2to1 [31:0] $end
$var wire 4 Y ALUctl [3:0] $end
$var wire 32 Z ALU_result [31:0] $end
$var wire 64 [ ALU_MULTorDIV_result [63:0] $end
$var wire 2 \ ALUSrcB [1:0] $end
$var wire 1 ] ALUSrcA $end
$var wire 32 ^ ALUB [31:0] $end
$var wire 32 _ ALUAmux2to1 [31:0] $end
$var reg 32 ` ALUOut [31:0] $end
$var reg 32 a regA [31:0] $end
$var reg 32 b regB [31:0] $end
$scope module ALU $end
$var wire 32 c a [31:0] $end
$var wire 5 d instr10_6 [4:0] $end
$var wire 1 . zero $end
$var wire 1 0 unsign $end
$var wire 1 B fixed_shift $end
$var wire 1 D branch_equal $end
$var wire 32 e b [31:0] $end
$var wire 33 f B_unsign [32:0] $end
$var wire 33 g A_unsign [32:0] $end
$var wire 4 h ALUOperation [3:0] $end
$var reg 64 i ALU_MULTorDIV_result [63:0] $end
$var reg 32 j ALU_result [31:0] $end
$var reg 66 k ALU_temp_MULTorDIV_result [65:0] $end
$var reg 33 l ALU_temp_result [32:0] $end
$var reg 32 m quotient [31:0] $end
$var reg 33 n quotient_unsign [32:0] $end
$var reg 32 o remainder [31:0] $end
$var reg 33 p remainder_unsign [32:0] $end
$upscope $end
$scope module ALUmux4to1 $end
$var wire 6 q opcode [5:0] $end
$var wire 32 r register_b [31:0] $end
$var wire 16 s immediate [15:0] $end
$var wire 2 t ALUSrcB [1:0] $end
$var reg 32 u ALUB [31:0] $end
$var reg 32 v shift_2 [31:0] $end
$var reg 32 w sign_extended [31:0] $end
$upscope $end
$scope module HI_LO_ControlInst $end
$var wire 64 x ALU_MULTorDIV_result [63:0] $end
$var wire 1 + clk $end
$var wire 6 y func_code [5:0] $end
$var wire 6 z opcode [5:0] $end
$var wire 32 { regA [31:0] $end
$var wire 1 , reset $end
$var wire 3 | state [2:0] $end
$var wire 6 } final_code [5:0] $end
$var wire 2 ~ HI_LO_ALUOut [1:0] $end
$var reg 32 !" HI [31:0] $end
$var reg 32 "" LO [31:0] $end
$upscope $end
$scope module IR $end
$var wire 1 + clk $end
$var wire 1 , reset $end
$var wire 32 #" memdata [31:0] $end
$var wire 1 T IRWrite $end
$var reg 16 $" instr15_0 [15:0] $end
$var reg 5 %" instr20_16 [4:0] $end
$var reg 5 &" instr25_21 [4:0] $end
$var reg 6 '" instr31_26 [5:0] $end
$upscope $end
$scope module control $end
$var wire 6 (" func_code [5:0] $end
$var wire 6 )" opcode [5:0] $end
$var wire 5 *" rt_code [4:0] $end
$var wire 3 +" state [2:0] $end
$var reg 1 ] ALUSrcA $end
$var reg 2 ," ALUSrcB [1:0] $end
$var reg 4 -" ALUctl [3:0] $end
$var reg 1 T IRWrite $end
$var reg 1 S IorD $end
$var reg 1 R JUMP $end
$var reg 1 ' MemRead $end
$var reg 1 " MemWrite $end
$var reg 1 P MemtoReg $end
$var reg 2 ." PCSource [1:0] $end
$var reg 1 M PCWrite $end
$var reg 1 L PCWriteCond $end
$var reg 1 F PC_RETURN_ADDR $end
$var reg 1 J RegDst $end
$var reg 1 I RegWrite $end
$var reg 1 D branch_equal $end
$var reg 1 B fixed_shift $end
$var reg 1 0 unsign $end
$upscope $end
$scope module data_selection_endian_conversion $end
$var wire 32 /" ALUOut [31:0] $end
$var wire 1 S IorD $end
$var wire 6 0" opcode [5:0] $end
$var wire 32 1" writedata_non_processed [31:0] $end
$var wire 32 2" readdata_non_processed [31:0] $end
$var wire 32 3" address [31:0] $end
$var wire 32 4" PC [31:0] $end
$var reg 4 5" byteenable [3:0] $end
$var reg 32 6" readdata_processed [31:0] $end
$var reg 32 7" writedata_processed [31:0] $end
$upscope $end
$scope module pc1 $end
$var wire 1 8" PCWriteCond $end
$var wire 1 + clk $end
$var wire 1 M pcctl $end
$var wire 1 , reset $end
$var wire 1 2 stall $end
$var wire 3 9" state [2:0] $end
$var wire 32 :" pc_prev [31:0] $end
$var reg 1 * active $end
$var reg 32 ;" branch_reg [31:0] $end
$var reg 32 <" pc_branch_address_reg [31:0] $end
$var reg 32 =" pc_new [31:0] $end
$upscope $end
$scope module pcmux $end
$var wire 32 >" ALUOut [31:0] $end
$var wire 32 ?" ALU_result [31:0] $end
$var wire 2 @" PCSource [1:0] $end
$var wire 32 A" PC_in [31:0] $end
$var wire 16 B" instr15_0 [15:0] $end
$var wire 5 C" instr20_16 [4:0] $end
$var wire 5 D" instr25_21 [4:0] $end
$var reg 32 E" Jump_address [31:0] $end
$var reg 32 F" PC_out [31:0] $end
$upscope $end
$scope module regfile $end
$var wire 1 I RegWrite $end
$var wire 1 + clk $end
$var wire 32 G" instr [31:0] $end
$var wire 5 H" readR1 [4:0] $end
$var wire 5 I" readR2 [4:0] $end
$var wire 32 J" readdata1 [31:0] $end
$var wire 32 K" readdata2 [31:0] $end
$var wire 32 L" register_v0 [31:0] $end
$var wire 1 , reset $end
$var wire 5 M" writeR [4:0] $end
$var wire 32 N" writedata [31:0] $end
$var wire 3 O" state [2:0] $end
$var wire 6 P" regimm_rt [5:0] $end
$var wire 6 Q" opcode [5:0] $end
$scope begin $unm_blk_146 $end
$var integer 32 R" i [31:0] $end
$upscope $end
$upscope $end
$scope module stm $end
$var wire 1 + clk $end
$var wire 1 , reset $end
$var wire 1 2 stall $end
$var reg 3 S" state [2:0] $end
$upscope $end
$upscope $end
$scope module ram $end
$var wire 32 T" address [31:0] $end
$var wire 4 U" byteenable [3:0] $end
$var wire 1 + clk $end
$var wire 1 ' read $end
$var wire 32 V" readdata_temp [31:0] $end
$var wire 1 " write $end
$var wire 32 W" writedata [31:0] $end
$var wire 8 X" writedata_3 [7:0] $end
$var wire 8 Y" writedata_2 [7:0] $end
$var wire 8 Z" writedata_1 [7:0] $end
$var wire 8 [" writedata_0 [7:0] $end
$var wire 32 \" word_address [31:0] $end
$var wire 8 ]" readdata_3 [7:0] $end
$var wire 8 ^" readdata_2 [7:0] $end
$var wire 8 _" readdata_1 [7:0] $end
$var wire 8 `" readdata_0 [7:0] $end
$var reg 32 a" readdata [31:0] $end
$var reg 1 # waitrequest $end
$scope begin $unm_blk_156 $end
$var integer 32 b" i [31:0] $end
$upscope $end
$upscope $end
$upscope $end
$enddefinitions $end
#0
$dumpvars
b1100100 b"
bx a"
bx `"
bx _"
bx ^"
bx ]"
bx \"
bx ["
bx Z"
bx Y"
bx X"
bx W"
bx V"
b1111 U"
bx T"
bx S"
bx R"
bx Q"
b0xxxxx P"
bx O"
bx N"
bx M"
bx L"
bx K"
bx J"
bx I"
bx H"
bx G"
bx F"
bx00 E"
bx D"
bx C"
bx B"
bx A"
bx @"
bx ?"
bx >"
bx ="
bx <"
bx ;"
bx :"
bx 9"
08"
bx 7"
bx 6"
b1111 5"
bx 4"
bx 3"
bx 2"
bx 1"
bx 0"
bx /"
bx ."
b0 -"
b0 ,"
bx +"
bx *"
bx )"
bx ("
bx '"
bx &"
bx %"
bx $"
bx #"
bx ""
bx !"
bx ~
bx }
bx |
bx {
bx z
bx y
bx x
bx w
bx00 v
bx u
b0 t
bx s
bx r
bx q
bx p
bx o
bx n
bx m
bx l
bx k
bx j
bx i
b0 h
b0xxxxxxxxxxxxxxxxxxxxxxxxxxxxxxxx g
b0xxxxxxxxxxxxxxxxxxxxxxxxxxxxxxxx f
bx e
bx d
bx c
bx b
bx a
bx `
bx _
bx ^
1]
b0 \
bx [
bx Z
b0 Y
bx X
bx W
bx V
bx U
0T
0S
0R
bx Q
0P
bx O
bx N
0M
0L
bx K
0J
0I
bx H
bx G
xF
bx E
0D
b1111 C
0B
bx A
bx @
bx ?
bx >
bx =
bx <
bx ;
bx :
bx 9
bx 8
bx 7
bx 6
bx 5
bx 4
bx 3
02
bx 1
00
bx /
x.
b1 -
0,
0+
x*
bx )
b1111 (
0'
bx &
bx %
bx $
x#
0"
bx !
$end
#5
0#
1+
#10
1,
0+
#15
b0 H
b0 N"
bx0xxxxxxxx0000000000000000000x00 K
b0 U
b0 /"
0.
b0 V
b0 ~
b111000 ]"
b11111110 ^"
b11 _"
b100100 `"
b0 G
b0 M"
b0 }
b10111111110000000000000000000100 :
b10111111110000000000000000000100 :"
b10111111110000000000000000000100 F"
b10111111110000000000000000000100 Z
b10111111110000000000000000000100 j
b10111111110000000000000000000100 ?"
b0 )"
b0 ("
b0 *"
b0 0"
b0 q
b0 6
b0 J"
b0 9
b0 H"
b0 5
b0 r
b0 K"
b0 8
b0 I"
b0 z
b0 y
b0 D"
b0 C"
b0 B"
b0 Q"
b0 P"
b10111111110000000000000000000000 g
b10111111110000000000000000000000 _
b10111111110000000000000000000000 c
b100 f
b100 ^
b100 e
b100 u
b0 v
b0 w
b100100000000111111111000111000 V"
b0 \"
b10111111110000000000000000000000 )
b10111111110000000000000000000000 E
b10111111110000000000000000000000 3"
b10111111110000000000000000000000 T"
b10110000000000000000000000000000 E"
b0 X
b0 G"
1'
b0 N
b0 ."
b0 @"
1M
b1 \
b1 t
b1 ,"
0]
b0 $
b0 3
b0 L"
b0 `
b0 >"
b0 b
b0 1"
b0 a
b0 {
b0 W
b0 !"
b0 Q
b0 ""
b0 ?
b0 s
b0 $"
b0 =
b0 %"
b0 <
b0 &"
b0 A
b0 ;
b0 '"
b0 <"
b10111111110000000000000000000000 O
b10111111110000000000000000000000 4"
b10111111110000000000000000000000 ="
b10111111110000000000000000000000 A"
1*
b0 1
b0 |
b0 +"
b0 9"
b0 O"
b0 S"
b100000 R"
1+
#20
0,
0+
#25
b11 G
b11 M"
b1001 }
b1100100 ]"
b1111110 ^"
b100 _"
b10111111110000000000000000000100 :
b10111111110000000000000000000100 :"
b10111111110000000000000000000100 F"
b10110000000011111111100011100000 E"
b1001 )"
b111000 ("
b11 *"
b1001 0"
b1001 q
b11 8
b11 I"
b1001 z
b111000 y
b11 C"
b1111111000111000 B"
b1001 Q"
b11 P"
b0 f
b0 ^
b0 e
b0 u
b10111111110000000000000000000100 Z
b10111111110000000000000000000100 j
b10111111110000000000000000000100 ?"
b10111111110000000000000000000100 H
b10111111110000000000000000000100 N"
b11111 >
b11000 @
b11000 d
b100100000000111111111000111000 X
b100100000000111111111000111000 G"
1T
0'
0M
b10 \
b10 t
b10 ,"
0]
b100100000001000111111001100100 V"
b1 \"
b10111111110000000000000000000100 )
b10111111110000000000000000000100 E
b10111111110000000000000000000100 3"
b10111111110000000000000000000100 T"
b1011111111000000000000000000xx00 K
b10111111110000000000000000000100 g
b10111111110000000000000000000100 _
b10111111110000000000000000000100 c
b10111111110000000000000000000100 U
b10111111110000000000000000000100 /"
b100100000000111111111000111000 %
b100100000000111111111000111000 4
b100100000000111111111000111000 #"
b100100000000111111111000111000 6"
b1 1
b1 |
b1 +"
b1 9"
b1 O"
b1 S"
b10111111110000000000000000000100 O
b10111111110000000000000000000100 4"
b10111111110000000000000000000100 ="
b10111111110000000000000000000100 A"
b10111111110000000000000000000100 `
b10111111110000000000000000000100 >"
b111000111111100000001100100100 &
b111000111111100000001100100100 7
b111000111111100000001100100100 2"
b111000111111100000001100100100 a"
1+
#30
0+
#35
b11111111111111111111111000111000 :
b11111111111111111111111000111000 :"
b11111111111111111111111000111000 F"
b11111111111111111111111000111000 Z
b11111111111111111111111000111000 j
b11111111111111111111111000111000 ?"
b0 g
b0 _
b0 c
b11111111111111111111111000111000 f
b11111111111111111111111000111000 ^
b11111111111111111111111000111000 e
b11111111111111111111111000111000 u
b11111111111111111111100011100000 v
b11111111111111111111111000111000 w
0T
b10 \
b10 t
b10 ,"
1]
b1111111000111000 ?
b1111111000111000 s
b1111111000111000 $"
b11 =
b11 %"
b100100000000111111111000111000 A
b1001 ;
b1001 '"
b10 1
b10 |
b10 +"
b10 9"
b10 O"
b10 S"
1+
#40
0+
#45
1.
b0 :
b0 :"
b0 F"
b0 Z
b0 j
b0 ?"
b0 f
b0 ^
b0 e
b0 u
b11111111111111111111111000111000 H
b11111111111111111111111000111000 N"
b1x11111111xxxxxxxxxxxxx000xx1000 K
1I
b0 \
b0 t
b0 ,"
b11111111111111111111111000111000 U
b11111111111111111111111000111000 /"
b11 1
b11 |
b11 +"
b11 9"
b11 O"
b11 S"
b11111111111111111111111000111000 `
b11111111111111111111111000111000 >"
1+
#50
0+
#55
0.
b11111111111111111111111000111000 :
b11111111111111111111111000111000 :"
b11111111111111111111111000111000 F"
b11111111111111111111111000111000 Z
b11111111111111111111111000111000 j
b11111111111111111111111000111000 ?"
b0 H
b0 N"
bx0xxxxxxxx000000000000000000x000 K
b11111111111111111111111000111000 f
b11111111111111111111111000111000 ^
b11111111111111111111111000111000 e
b11111111111111111111111000111000 u
b0 U
b0 /"
0I
b11111111111111111111111000111000 5
b11111111111111111111111000111000 r
b11111111111111111111111000111000 K"
b0 `
b0 >"
b100 1
b100 |
b100 +"
b100 9"
b100 O"
b100 S"
1+
#60
b10 -
0+
#65
b10111111110000000000000000001000 :
b10111111110000000000000000001000 :"
b10111111110000000000000000001000 F"
b10111111110000000000000000001000 Z
b10111111110000000000000000001000 j
b10111111110000000000000000001000 ?"
b100 f
b100 ^
b100 e
b100 u
b10111111110000000000000000000100 g
b10111111110000000000000000000100 _
b10111111110000000000000000000100 c
b11111111111111111111111000111000 H
b11111111111111111111111000111000 N"
b1x11111111xxxxxxxxxxxxx000xx1000 K
1'
1M
b1 \
b1 t
b1 ,"
0]
b11111111111111111111111000111000 U
b11111111111111111111111000111000 /"
b0 1
b0 |
b0 +"
b0 9"
b0 O"
b0 S"
b11111111111111111111111000111000 `
b11111111111111111111111000111000 >"
b11111111111111111111111000111000 b
b11111111111111111111111000111000 1"
1+
#70
0+
#75
b100 G
b100 M"
b10110000000100011111100110010000 E"
b100100 ("
b100 *"
b0 5
b0 r
b0 K"
b100 8
b100 I"
b100100 y
b100 C"
b111111001100100 B"
b100 P"
b11001 ]"
b0 ^"
b1100100 _"
b0 `"
b10111111101111111111111001000000 :
b10111111101111111111111001000000 :"
b10111111101111111111111001000000 F"
b1111 >
b100100000001000111111001100100 X
b100100000001000111111001100100 G"
b11001 @
b11001 d
b10111111110000000000000000001000 H
b10111111110000000000000000001000 N"
b10111111101111111111111001000000 Z
b10111111101111111111111001000000 j
b10111111101111111111111001000000 ?"
b11111111111111111111111000111000 f
b11111111111111111111111000111000 ^
b11111111111111111111111000111000 e
b11111111111111111111111000111000 u
b100100000001000111111001100100 %
b100100000001000111111001100100 4
b100100000001000111111001100100 #"
b100100000001000111111001100100 6"
b10111111110000000000000000001000 U
b10111111110000000000000000001000 /"
b11001000000000000011001 V"
b10 \"
b10111111110000000000000000001000 )
b10111111110000000000000000001000 E
b10111111110000000000000000001000 3"
b10111111110000000000000000001000 T"
b10111111110000000000000000001x00 K
b10111111110000000000000000001000 g
b10111111110000000000000000001000 _
b10111111110000000000000000001000 c
1T
0'
0M
b10 \
b10 t
b10 ,"
0]
b1100100011111100000010000100100 &
b1100100011111100000010000100100 7
b1100100011111100000010000100100 2"
b1100100011111100000010000100100 a"
b10111111110000000000000000001000 `
b10111111110000000000000000001000 >"
b10111111110000000000000000001000 O
b10111111110000000000000000001000 4"
b10111111110000000000000000001000 ="
b10111111110000000000000000001000 A"
b1 1
b1 |
b1 +"
b1 9"
b1 O"
b1 S"
1+
#80
0+
#85
b111111001100100 :
b111111001100100 :"
b111111001100100 F"
b0 g
b0 _
b0 c
b111111001100100 Z
b111111001100100 j
b111111001100100 ?"
b10111111101111111111111001000000 H
b10111111101111111111111001000000 N"
b101111111xxxxxxxxxxxxxx00x00xx00 K
0T
b10 \
b10 t
b10 ,"
1]
b111111001100100 f
b111111001100100 ^
b111111001100100 e
b111111001100100 u
b11111100110010000 v
b111111001100100 w
b10111111101111111111111001000000 U
b10111111101111111111111001000000 /"
b10 1
b10 |
b10 +"
b10 9"
b10 O"
b10 S"
b111111001100100 ?
b111111001100100 s
b111111001100100 $"
b100100000001000111111001100100 A
b100 =
b100 %"
b10111111101111111111111001000000 `
b10111111101111111111111001000000 >"
b0 b
b0 1"
1+
#90
0+
#95
1.
b0 :
b0 :"
b0 F"
b0 Z
b0 j
b0 ?"
b111111001100100 H
b111111001100100 N"
bx0xxxxxxxx0000000xxxxxx00xx0x100 K
b0 f
b0 ^
b0 e
b0 u
b111111001100100 U
b111111001100100 /"
1I
b0 \
b0 t
b0 ,"
b111111001100100 `
b111111001100100 >"
b11 1
b11 |
b11 +"
b11 9"
b11 O"
b11 S"
1+
#100
0+
#105
0.
b111111001100100 :
b111111001100100 :"
b111111001100100 F"
b111111001100100 Z
b111111001100100 j
b111111001100100 ?"
b0 H
b0 N"
bx0xxxxxxxx000000000000000000xx00 K
b111111001100100 f
b111111001100100 ^
b111111001100100 e
b111111001100100 u
0I
b0 U
b0 /"
b111111001100100 5
b111111001100100 r
b111111001100100 K"
b100 1
b100 |
b100 +"
b100 9"
b100 O"
b100 S"
b0 `
b0 >"
1+
#110
b11 -
0+
#115
b10111111110000000000000000001100 :
b10111111110000000000000000001100 :"
b10111111110000000000000000001100 F"
b10111111110000000000000000001100 Z
b10111111110000000000000000001100 j
b10111111110000000000000000001100 ?"
b111111001100100 H
b111111001100100 N"
bx0xxxxxxxx0000000xxxxxx00xx0x100 K
b100 f
b100 ^
b100 e
b100 u
b10111111110000000000000000001000 g
b10111111110000000000000000001000 _
b10111111110000000000000000001000 c
b111111001100100 U
b111111001100100 /"
1'
1M
b1 \
b1 t
b1 ,"
0]
b111111001100100 `
b111111001100100 >"
b111111001100100 b
b111111001100100 1"
b0 1
b0 |
b0 +"
b0 9"
b0 O"
b0 S"
1+
#120
0+
#125
b11001 }
b1000 ]"
b0 _"
b10111111110000000111111001110000 :
b10111111110000000111111001110000 :"
b10111111110000000111111001110000 F"
b10110001100100000000000001100100 E"
b0 )"
b11001 ("
b0 0"
b0 q
b11111111111111111111111000111000 6
b11111111111111111111111000111000 J"
b11 9
b11 H"
b0 z
b11001 y
b11 D"
b11001 B"
b0 Q"
b111111001100100 f
b111111001100100 ^
b111111001100100 e
b111111001100100 u
b10111111110000000111111001110000 Z
b10111111110000000111111001110000 j
b10111111110000000111111001110000 ?"
b10111111110000000000000000001100 H
b10111111110000000000000000001100 N"
b0 >
b0 @
b0 d
b11001000000000000011001 X
b11001000000000000011001 G"
1T
0'
0M
b10 \
b10 t
b10 ,"
0]
b1000 V"
b11 \"
b10111111110000000000000000001100 )
b10111111110000000000000000001100 E
b10111111110000000000000000001100 3"
b10111111110000000000000000001100 T"
b101111111100000000000000000xxx00 K
b10111111110000000000000000001100 g
b10111111110000000000000000001100 _
b10111111110000000000000000001100 c
b10111111110000000000000000001100 U
b10111111110000000000000000001100 /"
b11001000000000000011001 %
b11001000000000000011001 4
b11001000000000000011001 #"
b11001000000000000011001 6"
b1 1
b1 |
b1 +"
b1 9"
b1 O"
b1 S"
b10111111110000000000000000001100 O
b10111111110000000000000000001100 4"
b10111111110000000000000000001100 ="
b10111111110000000000000000001100 A"
b10111111110000000000000000001100 `
b10111111110000000000000000001100 >"
b11001000000000110010000000000 &
b11001000000000110010000000000 7
b11001000000000110010000000000 2"
b11001000000000110010000000000 a"
1+
#130
0+
#135
x.
bx :
bx :"
bx F"
b10111111110000000111111001110000 H
b10111111110000000111111001110000 N"
b10111111110000000xxxxxx00xx10000 K
bx Z
bx j
bx ?"
b11111100110001111111111000111101101110111100000 [
b11111100110001111111111000111101101110111100000 i
b11111100110001111111111000111101101110111100000 x
b11111100110001111111111000111101101110111100000 k
b11111111111111111111111000111000 g
b11111111111111111111111000111000 _
b11111111111111111111111000111000 c
b10111111110000000111111001110000 U
b10111111110000000111111001110000 /"
b1100100 v
b11001 w
b111 Y
b111 h
b111 -"
10
0T
b0 \
b0 t
b0 ,"
1]
b10111111110000000111111001110000 `
b10111111110000000111111001110000 >"
b11111111111111111111111000111000 a
b11111111111111111111111000111000 {
b11001 ?
b11001 s
b11001 $"
b11 <
b11 &"
b11001000000000000011001 A
b0 ;
b0 '"
b10 1
b10 |
b10 +"
b10 9"
b10 O"
b10 S"
1+
#140
0+
#145
0.
b111110010011100 :
b111110010011100 :"
b111110010011100 F"
b111110010011100 Z
b111110010011100 j
b111110010011100 ?"
bx H
bx N"
bx K
00
b0 Y
b0 h
b0 -"
bx U
bx /"
b11 1
b11 |
b11 +"
b11 9"
b11 O"
b11 S"
b11111111000111101101110111100000 Q
b11111111000111101101110111100000 ""
b111111001100011 W
b111111001100011 !"
bx `
bx >"
1+
#150
0+
#155
b111110010011100 H
b111110010011100 N"
bx0xxxxxxxx0000000xxxxx00x001xx00 K
b111110010011100 U
b111110010011100 /"
b111110010011100 `
b111110010011100 >"
b100 1
b100 |
b100 +"
b100 9"
b100 O"
b100 S"
1+
#160
b100 -
0+
#165
b10111111110000000000000000010000 :
b10111111110000000000000000010000 :"
b10111111110000000000000000010000 F"
b10111111110000000000000000010000 Z
b10111111110000000000000000010000 j
b10111111110000000000000000010000 ?"
b100 f
b100 ^
b100 e
b100 u
b10111111110000000000000000001100 g
b10111111110000000000000000001100 _
b10111111110000000000000000001100 c
1'
1M
b1 \
b1 t
b1 ,"
0]
b0 1
b0 |
b0 +"
b0 9"
b0 O"
b0 S"
1+
#170
0+
#175
b0 G
b0 M"
b1000 }
b10110000000000000000000000100000 E"
b1000 ("
b0 *"
b0 6
b0 J"
b0 9
b0 H"
b0 5
b0 r
b0 K"
b0 8
b0 I"
b1000 y
b0 D"
b0 C"
b1000 B"
b0 P"
b10000 ]"
b10000 ^"
b10111111110000000000000000101001 :
b10111111110000000000000000101001 :"
b10111111110000000000000000101001 F"
b1000 X
b1000 G"
b10111111110000000000000000010000 H
b10111111110000000000000000010000 N"
b10111111110000000000000000101001 Z
b10111111110000000000000000101001 j
b10111111110000000000000000101001 ?"
b11001 f
b11001 ^
b11001 e
b11001 u
b1000 %
b1000 4
b1000 #"
b1000 6"
b10111111110000000000000000010000 U
b10111111110000000000000000010000 /"
b1000000010000 V"
b100 \"
b10111111110000000000000000010000 )
b10111111110000000000000000010000 E
b10111111110000000000000000010000 3"
b10111111110000000000000000010000 T"
b10111111110000000000000000010x00 K
b10111111110000000000000000010000 g
b10111111110000000000000000010000 _
b10111111110000000000000000010000 c
1T
0'
0M
b10 \
b10 t
b10 ,"
0]
b1000000000000000000000000000 &
b1000000000000000000000000000 7
b1000000000000000000000000000 2"
b1000000000000000000000000000 a"
b10111111110000000000000000010000 `
b10111111110000000000000000010000 >"
b10111111110000000000000000010000 O
b10111111110000000000000000010000 4"
b10111111110000000000000000010000 ="
b10111111110000000000000000010000 A"
b1 1
b1 |
b1 +"
b1 9"
b1 O"
b1 S"
1+
#180
0+
#185
1.
b0 :
b0 :"
b0 F"
b0 g
b0 _
b0 c
b0 Z
b0 j
b0 ?"
b10111111110000000000000000101001 H
b10111111110000000000000000101001 N"
b10111111110000000000000000xxxx0x K
0T
b0 \
b0 t
b0 ,"
1]
b0 f
b0 ^
b0 e
b0 u
b100000 v
b1000 w
b10111111110000000000000000101001 U
b10111111110000000000000000101001 /"
b10 1
b10 |
b10 +"
b10 9"
b10 O"
b10 S"
b1000 ?
b1000 s
b1000 $"
b0 =
b0 %"
b1000 A
b0 <
b0 &"
b10111111110000000000000000101001 `
b10111111110000000000000000101001 >"
b0 b
b0 1"
b0 a
b0 {
1+
#190
0+
#195
b0 H
b0 N"
bx0xxxxxxxx00000000000000000x0x00 K
18"
b0 U
b0 /"
1R
b1 N
b1 ."
b1 @"
b0 `
b0 >"
b11 1
b11 |
b11 +"
b11 9"
b11 O"
b11 S"
1+
#200
0+
#205
08"
0R
b100 1
b100 |
b100 +"
b100 9"
b100 O"
b100 S"
b1 ;"
1+
#210
b101 -
0+
#215
0.
b10111111110000000000000000010100 :
b10111111110000000000000000010100 :"
b10111111110000000000000000010100 F"
b10111111110000000000000000010100 Z
b10111111110000000000000000010100 j
b10111111110000000000000000010100 ?"
b100 f
b100 ^
b100 e
b100 u
b10111111110000000000000000010000 g
b10111111110000000000000000010000 _
b10111111110000000000000000010000 c
1'
b0 N
b0 ."
b0 @"
1M
b1 \
b1 t
b1 ,"
0]
b0 1
b0 |
b0 +"
b0 9"
b0 O"
b0 S"
1+
#220
0+
#225
b1 V
b1 ~
b10000 }
b0 ]"
b0 ^"
b10111111110000000000000000011100 :
b10111111110000000000000000011100 :"
b10111111110000000000000000011100 F"
b10110000000000000100000001000000 E"
b10000 ("
b10000 y
b1000000010000 B"
b1000 f
b1000 ^
b1000 e
b1000 u
b10111111110000000000000000011100 Z
b10111111110000000000000000011100 j
b10111111110000000000000000011100 ?"
b111111001100011 H
b111111001100011 N"
b10 >
b1000000010000 X
b1000000010000 G"
1T
0'
0M
b10 \
b10 t
b10 ,"
0]
b0 V"
b101 \"
b10111111110000000000000000010100 )
b10111111110000000000000000010100 E
b10111111110000000000000000010100 3"
b10111111110000000000000000010100 T"
bx0xxxxxxxx0000000xxxxxx00xxxx0xx K
b10111111110000000000000000010100 g
b10111111110000000000000000010100 _
b10111111110000000000000000010100 c
b111111001100011 U
b111111001100011 /"
b1000000010000 %
b1000000010000 4
b1000000010000 #"
b1000000010000 6"
b1 1
b1 |
b1 +"
b1 9"
b1 O"
b1 S"
b10111111110000000000000000010100 O
b10111111110000000000000000010100 4"
b10111111110000000000000000010100 ="
b10111111110000000000000000010100 A"
b10111111110000000000000000010100 `
b10111111110000000000000000010100 >"
b10000000100000000000000000000 &
b10000000100000000000000000000 7
b10000000100000000000000000000 2"
b10000000100000000000000000000 a"
1+
#230
0+
#235
1.
b0 :
b0 :"
b0 F"
b0 Z
b0 j
b0 ?"
b0 g
b0 _
b0 c
b0 f
b0 ^
b0 e
b0 u
b100000001000000 v
b1000000010000 w
0T
b0 \
b0 t
b0 ,"
1]
b10111111110000000000000000011100 `
b10111111110000000000000000011100 >"
b1000000010000 A
b1000000010000 ?
b1000000010000 s
b1000000010000 $"
b10 1
b10 |
b10 +"
b10 9"
b10 O"
b10 S"
1+
#240
0+
#245
b10 G
b10 M"
1J
1I
b11 1
b11 |
b11 +"
b11 9"
b11 O"
b11 S"
b0 `
b0 >"
1+
#250
0+
#255
bx ]"
bx ^"
bx _"
bx `"
b0 G
b0 M"
bx V"
b10000000100000000000000000000 \"
b0 )
b0 E
b0 3"
b0 T"
b0xxxxxx00xx00xxx K
b100000001000000 E"
0I
0J
b111111001100011 $
b111111001100011 3
b111111001100011 L"
b0 ;"
b0 O
b0 4"
b0 ="
b0 A"
b100 1
b100 |
b100 +"
b100 9"
b100 O"
b100 S"
1+
#260
b110 -
0+
#265
0.
b100 :
b100 :"
b100 F"
b100 Z
b100 j
b100 ?"
b100 f
b100 ^
b100 e
b100 u
1'
1M
b1 \
b1 t
b1 ,"
0]
b0 1
b0 |
b0 +"
b0 9"
b0 O"
b0 S"
0*
1+
#270
0+
