rtl/mips_cpu/CPU_testbench.vcd
$date
	Thu Dec  2 17:27:49 2021
$end
$version
	Icarus Verilog
$end
$timescale
	1s
$end
$scope module CPU_testbench $end
$var wire 32 ! writedata [31:0] $end
$var wire 1 " write $end
$var wire 3 # state [2:0] $end
$var wire 32 $ register_v0 [31:0] $end
$var wire 32 % readdata_to_CPU [31:0] $end
$var wire 32 & readdata [31:0] $end
$var wire 1 ' read $end
$var wire 4 ( byteenable [3:0] $end
$var wire 32 ) address [31:0] $end
$var wire 1 * active $end
$var reg 1 + clk $end
$var reg 1 , reset $end
$var reg 1 - waitrequest $end
$scope module datapath $end
$var wire 1 + clk $end
$var wire 1 . pc_ctl $end
$var wire 32 / register_v0 [31:0] $end
$var wire 1 , reset $end
$var wire 1 - waitrequest $end
$var wire 32 0 writedata_from_CPU [31:0] $end
$var wire 1 1 zero $end
$var wire 32 2 writedata [31:0] $end
$var wire 1 " write $end
$var wire 1 3 unsign $end
$var wire 3 4 state [2:0] $end
$var wire 32 5 readdata_to_CPU [31:0] $end
$var wire 32 6 readdata2 [31:0] $end
$var wire 32 7 readdata1 [31:0] $end
$var wire 32 8 readdata [31:0] $end
$var wire 5 9 readR2 [4:0] $end
$var wire 5 : readR1 [4:0] $end
$var wire 1 ' read $end
$var wire 32 ; pc_in [31:0] $end
$var wire 6 < instr31_26 [5:0] $end
$var wire 5 = instr25_21 [4:0] $end
$var wire 5 > instr20_16 [4:0] $end
$var wire 5 ? instr15_11 [4:0] $end
$var wire 16 @ instr15_0 [15:0] $end
$var wire 5 A instr10_6 [4:0] $end
$var wire 32 B full_instr [31:0] $end
$var wire 1 C fixed_shift $end
$var wire 32 D address [31:0] $end
$var wire 5 E Regmux2to1 [4:0] $end
$var wire 32 F RegWritemux2to1 [31:0] $end
$var wire 1 G RegWrite $end
$var wire 1 H RegDst $end
$var wire 1 I PCWriteCond $end
$var wire 1 J PCWrite $end
$var wire 2 K PCSource [1:0] $end
$var wire 32 L PC [31:0] $end
$var wire 1 M MemtoReg $end
$var wire 32 N LO [31:0] $end
$var wire 1 O IorD $end
$var wire 1 P IRWrite $end
$var wire 32 Q HI [31:0] $end
$var wire 32 R Decodemux2to1 [31:0] $end
$var wire 4 S ALUctl [3:0] $end
$var wire 32 T ALU_result [31:0] $end
$var wire 64 U ALU_MULTorDIV_result [63:0] $end
$var wire 2 V ALUSrcB [1:0] $end
$var wire 1 W ALUSrcA $end
$var wire 32 X ALUB [31:0] $end
$var wire 32 Y ALUAmux2to1 [31:0] $end
$var reg 32 Z ALUOut [31:0] $end
$var reg 1 * active $end
$var reg 4 [ byteenable [3:0] $end
$var reg 32 \ regA [31:0] $end
$var reg 32 ] regB [31:0] $end
$var reg 1 ^ stall $end
$scope module ALU $end
$var wire 32 _ a [31:0] $end
$var wire 5 ` instr10_6 [4:0] $end
$var wire 1 1 zero $end
$var wire 1 3 unsign $end
$var wire 1 C fixed_shift $end
$var wire 32 a b [31:0] $end
$var wire 33 b B_unsign [32:0] $end
$var wire 33 c A_unsign [32:0] $end
$var wire 4 d ALUOperation [3:0] $end
$var reg 64 e ALU_MULTorDIV_result [63:0] $end
$var reg 32 f ALU_result [31:0] $end
$var reg 66 g ALU_temp_MULTorDIV_result [65:0] $end
$var reg 33 h ALU_temp_result [32:0] $end
$var reg 64 i A_extend [63:0] $end
$var reg 64 j B_extend [63:0] $end
$var reg 32 k quotient [31:0] $end
$var reg 33 l quotient_unsign [32:0] $end
$var reg 32 m remainder [31:0] $end
$var reg 33 n remainder_unsign [32:0] $end
$upscope $end
$scope module ALUmux4to1 $end
$var wire 6 o opcode [5:0] $end
$var wire 32 p register_b [31:0] $end
$var wire 16 q immediate [15:0] $end
$var wire 2 r ALUSrcB [1:0] $end
$var reg 32 s ALUB [31:0] $end
$var reg 32 t shift_2 [31:0] $end
$var reg 32 u sign_extended [31:0] $end
$upscope $end
$scope module HI_LO_Control $end
$var wire 64 v ALU_MULTorDIV_result [63:0] $end
$var wire 1 + clk $end
$var wire 6 w func_code [5:0] $end
$var wire 6 x opcode [5:0] $end
$var wire 32 y regA [31:0] $end
$var wire 1 , reset $end
$var wire 3 z state [2:0] $end
$var wire 6 { final_code [5:0] $end
$var reg 32 | HI [31:0] $end
$var reg 32 } LO [31:0] $end
$upscope $end
$scope module IR $end
$var wire 1 + clk $end
$var wire 1 , reset $end
$var wire 32 ~ memdata [31:0] $end
$var wire 1 P IRWrite $end
$var reg 16 !" instr15_0 [15:0] $end
$var reg 5 "" instr20_16 [4:0] $end
$var reg 5 #" instr25_21 [4:0] $end
$var reg 6 $" instr31_26 [5:0] $end
$upscope $end
$scope module control $end
$var wire 6 %" func_code [5:0] $end
$var wire 6 &" opcode [5:0] $end
$var wire 3 '" state [2:0] $end
$var reg 1 W ALUSrcA $end
$var reg 2 (" ALUSrcB [1:0] $end
$var reg 4 )" ALUctl [3:0] $end
$var reg 1 P IRWrite $end
$var reg 1 O IorD $end
$var reg 1 ' MemRead $end
$var reg 1 " MemWrite $end
$var reg 1 M MemtoReg $end
$var reg 2 *" PCSource [1:0] $end
$var reg 1 J PCWrite $end
$var reg 1 I PCWriteCond $end
$var reg 1 H RegDst $end
$var reg 1 G RegWrite $end
$var reg 4 +" byteenable [3:0] $end
$var reg 1 C fixed_shift $end
$var reg 1 3 unsign $end
$upscope $end
$scope module pc1 $end
$var wire 1 + clk $end
$var wire 1 . pcctl $end
$var wire 1 , reset $end
$var wire 32 ," pc_prev [31:0] $end
$var reg 32 -" pc_new [31:0] $end
$upscope $end
$scope module pcmux $end
$var wire 32 ." ALUOut [31:0] $end
$var wire 32 /" ALU_result [31:0] $end
$var wire 2 0" PCSource [1:0] $end
$var wire 32 1" PC_in [31:0] $end
$var wire 16 2" instr15_0 [15:0] $end
$var wire 5 3" instr20_16 [4:0] $end
$var wire 5 4" instr25_21 [4:0] $end
$var reg 32 5" Jump_address [31:0] $end
$var reg 32 6" PC_out [31:0] $end
$upscope $end
$scope module regfile $end
$var wire 1 G RegWrite $end
$var wire 1 + clk $end
$var wire 5 7" readR1 [4:0] $end
$var wire 5 8" readR2 [4:0] $end
$var wire 32 9" readdata1 [31:0] $end
$var wire 32 :" readdata2 [31:0] $end
$var wire 1 , reset $end
$var wire 5 ;" writeR [4:0] $end
$var wire 32 <" writedata [31:0] $end
$scope begin $unm_blk_87 $end
$var integer 32 =" i [31:0] $end
$upscope $end
$upscope $end
$scope module stm $end
$var wire 1 + clk $end
$var wire 1 , reset $end
$var wire 1 ^ stall $end
$var reg 3 >" state [2:0] $end
$upscope $end
$scope module swap $end
$var wire 32 ?" writedata_from_CPU [31:0] $end
$var wire 32 @" writedata_to_RAM [31:0] $end
$var wire 32 A" readdata_to_CPU [31:0] $end
$var wire 32 B" readdata_from_RAM [31:0] $end
$upscope $end
$upscope $end
$scope module ram $end
$var wire 32 C" address [31:0] $end
$var wire 4 D" byteenable [3:0] $end
$var wire 1 + clk $end
$var wire 1 ' read $end
$var wire 1 " write $end
$var wire 32 E" writedata [31:0] $end
$var reg 32 F" readdata [31:0] $end
$scope begin $unm_blk_91 $end
$var integer 32 G" i [31:0] $end
$upscope $end
$upscope $end
$upscope $end
$enddefinitions $end
#0
$dumpvars
b1000000000000 G"
bx F"
bx E"
bx D"
bx C"
bx B"
bx A"
bx @"
bx ?"
bx >"
bx ="
bx <"
bx ;"
bx :"
bx 9"
bx 8"
bx 7"
bx 6"
bx00 5"
bx 4"
bx 3"
bx 2"
bx 1"
b0 0"
bx /"
bx ."
bx -"
bx ,"
bx +"
b0 *"
b0 )"
b0 ("
bx '"
bx &"
bx %"
bx $"
bx #"
bx ""
bx !"
bx ~
bx }
bx |
bx {
bx z
bx y
bx x
bx w
bx v
bx u
bx00 t
bx s
b0 r
bx q
bx p
bx o
bx n
bx m
bx l
bx k
bx j
bx i
bx h
bx g
bx f
bx e
b0 d
b0xxxxxxxxxxxxxxxxxxxxxxxxxxxxxxxx c
b0xxxxxxxxxxxxxxxxxxxxxxxxxxxxxxxx b
bx a
bx `
bx _
x^
bx ]
bx \
bx [
bx Z
bx Y
bx X
1W
b0 V
bx U
bx T
b0 S
bx R
bx Q
0P
0O
bx N
0M
bx L
b0 K
0J
0I
0H
0G
bx F
bx E
bx D
0C
bx B
bx A
bx @
bx ?
bx >
bx =
bx <
bx ;
bx :
bx 9
bx 8
bx 7
bx 6
bx 5
bx 4
03
bx 2
x1
bx 0
bx /
0.
x-
0,
0+
x*
bx )
bx (
0'
bx &
bx %
bx $
bx #
0"
bx !
$end
#10
1+
#20
1,
0+
#30
b0 E
b0 ;"
b0 {
b100 ;
b100 ,"
b100 6"
b100 T
b100 f
b100 /"
b0 &"
b0 %"
b0 o
b0 7
b0 9"
b0 :
b0 7"
b0 6
b0 p
b0 :"
b0 9
b0 8"
b0 x
b0 w
b0 4"
b0 3"
b0 2"
1.
b0 F
b0 <"
b0 !
b0 2
b0 @"
b0 E"
b0 c
b0 Y
b0 _
b100 b
b100 X
b100 a
b100 s
b0 t
b0 u
b0 5"
b0 )
b0 D
b0 C"
b0 R
1'
1J
b1 V
b1 r
b1 ("
0W
b0 $
b0 /
b0 Z
b0 ."
b0 0
b0 ]
b0 ?"
b0 \
b0 y
b0 Q
b0 |
b0 N
b0 }
b0 @
b0 q
b0 !"
b0 >
b0 ""
b0 =
b0 #"
b0 B
b0 <
b0 $"
b0 L
b0 -"
b0 1"
b0 #
b0 4
b0 z
b0 '"
b0 >"
b100000 ="
1+
#40
0,
0+
#50
b1 E
b1 ;"
b100011 {
b100 ;
b100 ,"
b100 6"
b1000000000000101000 5"
b100011 &"
b1010 %"
b100011 o
b1 9
b1 8"
b100011 x
b1010 w
b1 3"
b1010 2"
0.
b0 b
b0 X
b0 a
b0 s
b100 T
b100 f
b100 /"
b0 A
b0 `
b0 ?
b10001100000000010000000000001010 R
1P
0'
0J
b10 V
b10 r
b10 ("
0W
b100 c
b100 Y
b100 _
b100 )
b100 D
b100 C"
b100 F
b100 <"
b10001100000000010000000000001010 5
b10001100000000010000000000001010 ~
b10001100000000010000000000001010 A"
b10001100000000010000000000001010 %
b1 #
b1 4
b1 z
b1 '"
b1 >"
b100 L
b100 -"
b100 1"
b100 $
b100 /
b100 Z
b100 ."
b1010000000000000000110001100 &
b1010000000000000000110001100 8
b1010000000000000000110001100 B"
b1010000000000000000110001100 F"
1+
#60
0+
#70
b101000 ;
b101000 ,"
b101000 6"
b101000 T
b101000 f
b101000 /"
b0 c
b0 Y
b0 _
b101000 b
b101000 X
b101000 a
b101000 s
b101000 t
b1010 u
0P
b11 V
b11 r
b11 ("
1W
b1010 @
b1010 q
b1010 !"
b1 >
b1 ""
b10001100000000010000000000001010 B
b100011 <
b100011 $"
b10 #
b10 4
b10 z
b10 '"
b10 >"
1+
#80
0+
#90
b0 ;
b0 ,"
b0 6"
b0 T
b0 f
b0 /"
b101000 )
b101000 D
b101000 C"
b0 b
b0 X
b0 a
b0 s
1'
1O
b0 V
b0 r
b0 ("
b101000 F
b101000 <"
b11 #
b11 4
b11 z
b11 '"
b11 >"
b101000 $
b101000 /
b101000 Z
b101000 ."
1+
#100
0+
#110
b10000000000000010000000000000010 5
b10000000000000010000000000000010 ~
b10000000000000010000000000000010 A"
b10000000000000010000000000000010 %
b100 )
b100 D
b100 C"
b10000000000000010000000000000010 F
b10000000000000010000000000000010 <"
1M
1G
0'
0O
b10000000000000000110000000 &
b10000000000000000110000000 8
b10000000000000000110000000 B"
b10000000000000000110000000 F"
b0 $
b0 /
b0 Z
b0 ."
b100 #
b100 4
b100 z
b100 '"
b100 >"
1+
#120
0+
#130
b1000 ;
b1000 ,"
b1000 6"
b1000 T
b1000 f
b1000 /"
1.
b100 c
b100 Y
b100 _
b0 F
b0 <"
b100 b
b100 X
b100 a
b100 s
1'
1J
b1 V
b1 r
b1 ("
0W
0M
0G
b10000000000000010000000000000010 6
b10000000000000010000000000000010 p
b10000000000000010000000000000010 :"
b0 #
b0 4
b0 z
b0 '"
b0 >"
1+
#140
0+
#150
b10 E
b10 ;"
b0 6
b0 p
b0 :"
b10 9
b10 8"
b10 3"
b100011 {
b10010 ;
b10010 ,"
b10010 6"
b10000000000000101000 5"
b10010 T
b10010 f
b10010 /"
b100011 &"
b1010 %"
b100011 o
b100011 x
b1010 w
b1010 2"
0.
b1010 b
b1010 X
b1010 a
b1010 s
b10001100000000100000000000001010 5
b10001100000000100000000000001010 ~
b10001100000000100000000000001010 A"
b10001100000000100000000000001010 %
b1000 F
b1000 <"
b10000000000000000110000000 !
b10000000000000000110000000 2
b10000000000000000110000000 @"
b10000000000000000110000000 E"
b1000 c
b1000 Y
b1000 _
b1000 )
b1000 D
b1000 C"
b10001100000000100000000000001010 R
1P
0'
0J
b10 V
b10 r
b10 ("
0W
b1010000000000000001010001100 &
b1010000000000000001010001100 8
b1010000000000000001010001100 B"
b1010000000000000001010001100 F"
b1000 $
b1000 /
b1000 Z
b1000 ."
b10000000000000010000000000000010 0
b10000000000000010000000000000010 ]
b10000000000000010000000000000010 ?"
b1000 L
b1000 -"
b1000 1"
b1 #
b1 4
b1 z
b1 '"
b1 >"
1+
#160
0+
#170
b101000 ;
b101000 ,"
b101000 6"
b101000 T
b101000 f
b101000 /"
b101000 b
b101000 X
b101000 a
b101000 s
b0 c
b0 Y
b0 _
0P
b11 V
b11 r
b11 ("
1W
b10010 F
b10010 <"
b0 !
b0 2
b0 @"
b0 E"
b10 #
b10 4
b10 z
b10 '"
b10 >"
b10001100000000100000000000001010 B
b10 >
b10 ""
b10010 $
b10010 /
b10010 Z
b10010 ."
b0 0
b0 ]
b0 ?"
1+
#180
0+
#190
b0 ;
b0 ,"
b0 6"
b0 T
b0 f
b0 /"
b101000 )
b101000 D
b101000 C"
b0 b
b0 X
b0 a
b0 s
b101000 F
b101000 <"
1'
1O
b0 V
b0 r
b0 ("
b101000 $
b101000 /
b101000 Z
b101000 ."
b11 #
b11 4
b11 z
b11 '"
b11 >"
1+
#200
0+
#210
1M
1G
0'
0O
b1000 )
b1000 D
b1000 C"
b10000000000000010000000000000010 F
b10000000000000010000000000000010 <"
b10000000000000010000000000000010 5
b10000000000000010000000000000010 ~
b10000000000000010000000000000010 A"
b10000000000000010000000000000010 %
b100 #
b100 4
b100 z
b100 '"
b100 >"
b0 $
b0 /
b0 Z
b0 ."
b10000000000000000110000000 &
b10000000000000000110000000 8
b10000000000000000110000000 B"
b10000000000000000110000000 F"
1+
#220
0+
#230
b1100 ;
b1100 ,"
b1100 6"
b1100 T
b1100 f
b1100 /"
1.
b1000 c
b1000 Y
b1000 _
b0 F
b0 <"
b100 b
b100 X
b100 a
b100 s
1'
1J
b1 V
b1 r
b1 ("
0W
0M
0G
b10000000000000010000000000000010 6
b10000000000000010000000000000010 p
b10000000000000010000000000000010 :"
b0 #
b0 4
b0 z
b0 '"
b0 >"
1+
#240
0+
#250
b1 E
b1 ;"
b0 {
b10110 ;
b10110 ,"
b10110 6"
b1000110001000000000 5"
b0 &"
b0 %"
b0 o
b1 9
b1 8"
b0 x
b0 w
b1 3"
b1100010000000 2"
0.
b1010 b
b1010 X
b1010 a
b1010 s
b10110 T
b10110 f
b10110 /"
b10 A
b10 `
b11 ?
b10001100010000000 R
1P
0'
0J
b10 V
b10 r
b10 ("
0W
b1100 c
b1100 Y
b1100 _
b1100 )
b1100 D
b1100 C"
b1100 F
b1100 <"
b10000000000000000110000000 !
b10000000000000000110000000 2
b10000000000000000110000000 @"
b10000000000000000110000000 E"
b10001100010000000 5
b10001100010000000 ~
b10001100010000000 A"
b10001100010000000 %
b1 #
b1 4
b1 z
b1 '"
b1 >"
b1100 L
b1100 -"
b1100 1"
b1100 $
b1100 /
b1100 Z
b1100 ."
b10000000000000010000000000000010 0
b10000000000000010000000000000010 ]
b10000000000000010000000000000010 ?"
b10000000000110000000000100000000 &
b10000000000110000000000100000000 8
b10000000000110000000000100000000 B"
b10000000000110000000000100000000 F"
1+
#260
0+
#270
b1000000000000001000 ;
b1000000000000001000 ,"
b1000000000000001000 6"
b1000000000000001000 T
b1000000000000001000 f
b1000000000000001000 /"
b0 c
b0 Y
b0 _
b10110 F
b10110 <"
b10000000000000010000000000000010 b
b10000000000000010000000000000010 X
b10000000000000010000000000000010 a
b10000000000000010000000000000010 s
b110001000000000 t
b1100010000000 u
b1011 S
b1011 d
b1011 )"
1C
0P
b0 V
b0 r
b0 ("
1W
b10110 $
b10110 /
b10110 Z
b10110 ."
b1100010000000 @
b1100010000000 q
b1100010000000 !"
b1 >
b1 ""
b10001100010000000 B
b0 <
b0 $"
b10 #
b10 4
b10 z
b10 '"
b10 >"
1+
#280
0+
#290
b10000000000000010000000000000010 ;
b10000000000000010000000000000010 ,"
b10000000000000010000000000000010 6"
b11 E
b11 ;"
b10000000000000010000000000000010 T
b10000000000000010000000000000010 f
b10000000000000010000000000000010 /"
1H
1G
0C
b0 S
b0 d
b0 )"
b1000000000000001000 F
b1000000000000001000 <"
b11 #
b11 4
b11 z
b11 '"
b11 >"
b1000000000000001000 $
b1000000000000001000 /
b1000000000000001000 Z
b1000000000000001000 ."
1+
#300
0+
#310
b1 E
b1 ;"
b10000000000000010000000000000010 F
b10000000000000010000000000000010 <"
0G
0H
b10000000000000010000000000000010 $
b10000000000000010000000000000010 /
b10000000000000010000000000000010 Z
b10000000000000010000000000000010 ."
b100 #
b100 4
b100 z
b100 '"
b100 >"
1+
#320
0+
#330
b10000 ;
b10000 ,"
b10000 6"
b10000 T
b10000 f
b10000 /"
1.
b100 b
b100 X
b100 a
b100 s
b1100 c
b1100 Y
b1100 _
1'
1J
b1 V
b1 r
b1 ("
0W
b0 #
b0 4
b0 z
b0 '"
b0 >"
1+
#340
0+
#350
b100 {
b1000001000110001000010000 5"
b100 %"
b10000000000000010000000000000010 7
b10000000000000010000000000000010 9"
b10 :
b10 7"
b100 w
b10 4"
b1100010000100 2"
b1100010010000 ;
b1100010010000 ,"
b1100010010000 6"
b10000010001100010000100 R
b1100010010000 T
b1100010010000 f
b1100010010000 /"
0.
b1100010000000 b
b1100010000000 X
b1100010000000 a
b1100010000000 s
b10000010001100010000100 5
b10000010001100010000100 ~
b10000010001100010000100 A"
b10000010001100010000100 %
b10000 F
b10000 <"
b10000 c
b10000 Y
b10000 _
b10000 )
b10000 D
b10000 C"
1P
0'
0J
b10 V
b10 r
b10 ("
0W
b10000100000110000100000100000000 &
b10000100000110000100000100000000 8
b10000100000110000100000100000000 B"
b10000100000110000100000100000000 F"
b10000 $
b10000 /
b10000 Z
b10000 ."
b10000 L
b10000 -"
b10000 1"
b1 #
b1 4
b1 z
b1 '"
b1 >"
1+
#360
0+
#370
b0 ;
b0 ,"
b0 6"
b10000000000000010000000000000010 c
b10000000000000010000000000000010 Y
b10000000000000010000000000000010 _
b0 T
b0 f
b0 /"
b1011 S
b1011 d
b1011 )"
0P
b0 V
b0 r
b0 ("
1W
b10000000000000010000000000000010 b
b10000000000000010000000000000010 X
b10000000000000010000000000000010 a
b10000000000000010000000000000010 s
b110001000010000 t
b1100010000100 u
b1100010010000 F
b1100010010000 <"
b10 #
b10 4
b10 z
b10 '"
b10 >"
b1100010000100 @
b1100010000100 q
b1100010000100 !"
b10000010001100010000100 B
b10 =
b10 #"
b1100010010000 $
b1100010010000 /
b1100010010000 Z
b1100010010000 ."
b10000000000000010000000000000010 \
b10000000000000010000000000000010 y
1+
#380
0+
#390
b100000000000000100 ;
b100000000000000100 ,"
b100000000000000100 6"
b11 E
b11 ;"
b100000000000000100 T
b100000000000000100 f
b100000000000000100 /"
b0 F
b0 <"
1H
1G
b0 S
b0 d
b0 )"
b0 $
b0 /
b0 Z
b0 ."
b11 #
b11 4
b11 z
b11 '"
b11 >"
1+
#400
0+
#410
b1 E
b1 ;"
0G
0H
b100000000000000100 F
b100000000000000100 <"
b100 #
b100 4
b100 z
b100 '"
b100 >"
b100000000000000100 $
b100000000000000100 /
b100000000000000100 Z
b100000000000000100 ."
1+
#420
0+
#430
b10100 ;
b10100 ,"
b10100 6"
b10100 T
b10100 f
b10100 /"
1.
b100 b
b100 X
b100 a
b100 s
b10000 c
b10000 Y
b10000 _
1'
1J
b1 V
b1 r
b1 ("
0W
b0 #
b0 4
b0 z
b0 '"
b0 >"
1+
#440
0+
#450
b10 {
b1100010011000 ;
b1100010011000 ,"
b1100010011000 6"
b1000110001000001000 5"
b10 %"
b0 7
b0 9"
b0 :
b0 7"
b10 w
b0 4"
b1100010000010 2"
0.
b1100010000100 b
b1100010000100 X
b1100010000100 a
b1100010000100 s
b1100010011000 T
b1100010011000 f
b1100010011000 /"
b10001100010000010 R
1P
0'
0J
b10 V
b10 r
b10 ("
0W
b10100 c
b10100 Y
b10100 _
b10100 )
b10100 D
b10100 C"
b10100 F
b10100 <"
b10001100010000010 5
b10001100010000010 ~
b10001100010000010 A"
b10001100010000010 %
b1 #
b1 4
b1 z
b1 '"
b1 >"
b10100 L
b10100 -"
b10100 1"
b10100 $
b10100 /
b10100 Z
b10100 ."
b10000010000110000000000100000000 &
b10000010000110000000000100000000 8
b10000010000110000000000100000000 B"
b10000010000110000000000100000000 F"
1+
#460
0+
#470
b100000000000000100000000000000 ;
b100000000000000100000000000000 ,"
b100000000000000100000000000000 6"
b100000000000000100000000000000 T
b100000000000000100000000000000 f
b100000000000000100000000000000 /"
b0 c
b0 Y
b0 _
b1100010011000 F
b1100010011000 <"
b10000000000000010000000000000010 b
b10000000000000010000000000000010 X
b10000000000000010000000000000010 a
b10000000000000010000000000000010 s
b110001000001000 t
b1100010000010 u
b1100 S
b1100 d
b1100 )"
1C
0P
b0 V
b0 r
b0 ("
1W
b1100010011000 $
b1100010011000 /
b1100010011000 Z
b1100010011000 ."
b0 \
b0 y
b1100010000010 @
b1100010000010 q
b1100010000010 !"
b10001100010000010 B
b0 =
b0 #"
b10 #
b10 4
b10 z
b10 '"
b10 >"
1+
#480
0+
#490
b10000000000000010000000000000010 ;
b10000000000000010000000000000010 ,"
b10000000000000010000000000000010 6"
b11 E
b11 ;"
b10000000000000010000000000000010 T
b10000000000000010000000000000010 f
b10000000000000010000000000000010 /"
1H
1G
0C
b0 S
b0 d
b0 )"
b100000000000000100000000000000 F
b100000000000000100000000000000 <"
b11 #
b11 4
b11 z
b11 '"
b11 >"
b100000000000000100000000000000 $
b100000000000000100000000000000 /
b100000000000000100000000000000 Z
b100000000000000100000000000000 ."
1+
#500
0+
#510
b1 E
b1 ;"
b10000000000000010000000000000010 F
b10000000000000010000000000000010 <"
0G
0H
b10000000000000010000000000000010 $
b10000000000000010000000000000010 /
b10000000000000010000000000000010 Z
b10000000000000010000000000000010 ."
b100 #
b100 4
b100 z
b100 '"
b100 >"
1+
#520
0+
#530
b11000 ;
b11000 ,"
b11000 6"
b11000 T
b11000 f
b11000 /"
1.
b100 b
b100 X
b100 a
b100 s
b10100 c
b10100 Y
b10100 _
1'
1J
b1 V
b1 r
b1 ("
0W
b0 #
b0 4
b0 z
b0 '"
b0 >"
1+
#540
0+
#550
b110 {
b1000001000110001000011000 5"
b110 %"
b10000000000000010000000000000010 7
b10000000000000010000000000000010 9"
b10 :
b10 7"
b110 w
b10 4"
b1100010000110 2"
b1100010011010 ;
b1100010011010 ,"
b1100010011010 6"
b10000010001100010000110 R
b1100010011010 T
b1100010011010 f
b1100010011010 /"
0.
b1100010000010 b
b1100010000010 X
b1100010000010 a
b1100010000010 s
b10000010001100010000110 5
b10000010001100010000110 ~
b10000010001100010000110 A"
b10000010001100010000110 %
b11000 F
b11000 <"
b11000 c
b11000 Y
b11000 _
b11000 )
b11000 D
b11000 C"
1P
0'
0J
b10 V
b10 r
b10 ("
0W
b10000110000110000100000100000000 &
b10000110000110000100000100000000 8
b10000110000110000100000100000000 B"
b10000110000110000100000100000000 F"
b11000 $
b11000 /
b11000 Z
b11000 ."
b11000 L
b11000 -"
b11000 1"
b1 #
b1 4
b1 z
b1 '"
b1 >"
1+
#560
0+
#570
b0 ;
b0 ,"
b0 6"
b10000000000000010000000000000010 c
b10000000000000010000000000000010 Y
b10000000000000010000000000000010 _
b0 T
b0 f
b0 /"
b1100 S
b1100 d
b1100 )"
0P
b0 V
b0 r
b0 ("
1W
b10000000000000010000000000000010 b
b10000000000000010000000000000010 X
b10000000000000010000000000000010 a
b10000000000000010000000000000010 s
b110001000011000 t
b1100010000110 u
b1100010011010 F
b1100010011010 <"
b10 #
b10 4
b10 z
b10 '"
b10 >"
b1100010000110 @
b1100010000110 q
b1100010000110 !"
b10000010001100010000110 B
b10 =
b10 #"
b1100010011010 $
b1100010011010 /
b1100010011010 Z
b1100010011010 ."
b10000000000000010000000000000010 \
b10000000000000010000000000000010 y
1+
#580
0+
#590
b100000000000000100 ;
b100000000000000100 ,"
b100000000000000100 6"
b11 E
b11 ;"
b100000000000000100 T
b100000000000000100 f
b100000000000000100 /"
b0 F
b0 <"
1H
1G
b0 S
b0 d
b0 )"
b0 $
b0 /
b0 Z
b0 ."
b11 #
b11 4
b11 z
b11 '"
b11 >"
1+
#600
0+
#610
b1 E
b1 ;"
0G
0H
b100000000000000100 F
b100000000000000100 <"
b100 #
b100 4
b100 z
b100 '"
b100 >"
b100000000000000100 $
b100000000000000100 /
b100000000000000100 Z
b100000000000000100 ."
1+
#620
0+
#630
b11100 ;
b11100 ,"
b11100 6"
b11100 T
b11100 f
b11100 /"
1.
b100 b
b100 X
b100 a
b100 s
b11000 c
b11000 Y
b11000 _
1'
1J
b1 V
b1 r
b1 ("
0W
b0 #
b0 4
b0 z
b0 '"
b0 >"
1+
#640
0+
#650
b11 {
b1100010100010 ;
b1100010100010 ,"
b1100010100010 6"
b1000110001000001100 5"
b11 %"
b0 7
b0 9"
b0 :
b0 7"
b11 w
b0 4"
b1100010000011 2"
0.
b1100010000110 b
b1100010000110 X
b1100010000110 a
b1100010000110 s
b1100010100010 T
b1100010100010 f
b1100010100010 /"
b10001100010000011 R
1P
0'
0J
b10 V
b10 r
b10 ("
0W
b11100 c
b11100 Y
b11100 _
b11100 )
b11100 D
b11100 C"
b11100 F
b11100 <"
b10001100010000011 5
b10001100010000011 ~
b10001100010000011 A"
b10001100010000011 %
b1 #
b1 4
b1 z
b1 '"
b1 >"
b11100 L
b11100 -"
b11100 1"
b11100 $
b11100 /
b11100 Z
b11100 ."
b10000011000110000000000100000000 &
b10000011000110000000000100000000 8
b10000011000110000000000100000000 B"
b10000011000110000000000100000000 F"
1+
#660
0+
#670
b100000000000000100000000000000 ;
b100000000000000100000000000000 ,"
b100000000000000100000000000000 6"
b100000000000000100000000000000 T
b100000000000000100000000000000 f
b100000000000000100000000000000 /"
b0 c
b0 Y
b0 _
b1100010100010 F
b1100010100010 <"
b10000000000000010000000000000010 b
b10000000000000010000000000000010 X
b10000000000000010000000000000010 a
b10000000000000010000000000000010 s
b110001000001100 t
b1100010000011 u
b1101 S
b1101 d
b1101 )"
1C
0P
b0 V
b0 r
b0 ("
1W
b1100010100010 $
b1100010100010 /
b1100010100010 Z
b1100010100010 ."
b0 \
b0 y
b1100010000011 @
b1100010000011 q
b1100010000011 !"
b10001100010000011 B
b0 =
b0 #"
b10 #
b10 4
b10 z
b10 '"
b10 >"
1+
#680
0+
#690
b10000000000000010000000000000010 ;
b10000000000000010000000000000010 ,"
b10000000000000010000000000000010 6"
b11 E
b11 ;"
b10000000000000010000000000000010 T
b10000000000000010000000000000010 f
b10000000000000010000000000000010 /"
1H
1G
0C
b0 S
b0 d
b0 )"
b100000000000000100000000000000 F
b100000000000000100000000000000 <"
b11 #
b11 4
b11 z
b11 '"
b11 >"
b100000000000000100000000000000 $
b100000000000000100000000000000 /
b100000000000000100000000000000 Z
b100000000000000100000000000000 ."
1+
#700
0+
#710
b1 E
b1 ;"
b10000000000000010000000000000010 F
b10000000000000010000000000000010 <"
0G
0H
b10000000000000010000000000000010 $
b10000000000000010000000000000010 /
b10000000000000010000000000000010 Z
b10000000000000010000000000000010 ."
b100 #
b100 4
b100 z
b100 '"
b100 >"
1+
#720
0+
#730
b100000 ;
b100000 ,"
b100000 6"
b100000 T
b100000 f
b100000 /"
1.
b100 b
b100 X
b100 a
b100 s
b11100 c
b11100 Y
b11100 _
1'
1J
b1 V
b1 r
b1 ("
0W
b0 #
b0 4
b0 z
b0 '"
b0 >"
1+
#740
0+
#750
b111 {
b1000001000110001000011100 5"
b111 %"
b10000000000000010000000000000010 7
b10000000000000010000000000000010 9"
b10 :
b10 7"
b111 w
b10 4"
b1100010000111 2"
b1100010100011 ;
b1100010100011 ,"
b1100010100011 6"
b10000010001100010000111 R
b1100010100011 T
b1100010100011 f
b1100010100011 /"
0.
b1100010000011 b
b1100010000011 X
b1100010000011 a
b1100010000011 s
b10000010001100010000111 5
b10000010001100010000111 ~
b10000010001100010000111 A"
b10000010001100010000111 %
b100000 F
b100000 <"
b100000 c
b100000 Y
b100000 _
b100000 )
b100000 D
b100000 C"
1P
0'
0J
b10 V
b10 r
b10 ("
0W
b10000111000110000100000100000000 &
b10000111000110000100000100000000 8
b10000111000110000100000100000000 B"
b10000111000110000100000100000000 F"
b100000 $
b100000 /
b100000 Z
b100000 ."
b100000 L
b100000 -"
b100000 1"
b1 #
b1 4
b1 z
b1 '"
b1 >"
1+
#760
0+
