rtl/mips_cpu/CPU_testbench.vcd
$date
	Tue Dec  7 19:47:16 2021
$end
$version
	Icarus Verilog
$end
$timescale
	1s
$end
$scope module CPU_testbench $end
$var wire 32 ! writedata [31:0] $end
$var wire 1 " write $end
$var wire 32 # register_v0 [31:0] $end
$var wire 32 $ readdata_to_CPU [31:0] $end
$var wire 32 % readdata [31:0] $end
$var wire 1 & read $end
$var wire 4 ' byteenable [3:0] $end
$var wire 32 ( address [31:0] $end
$var wire 1 ) active $end
$var reg 1 * clk $end
$var reg 1 + reset $end
$var reg 1 , waitrequest $end
$var integer 32 - counter [31:0] $end
$scope module datapath $end
$var wire 1 * clk $end
$var wire 1 + reset $end
$var wire 1 , waitrequest $end
$var wire 32 . writedata_from_CPU [31:0] $end
$var wire 1 / zero $end
$var wire 32 0 writedata [31:0] $end
$var wire 1 " write $end
$var wire 1 1 unsign $end
$var wire 3 2 state [2:0] $end
$var wire 1 3 stall $end
$var wire 32 4 register_v0 [31:0] $end
$var wire 32 5 readdata_to_CPU [31:0] $end
$var wire 32 6 readdata2 [31:0] $end
$var wire 32 7 readdata1 [31:0] $end
$var wire 32 8 readdata [31:0] $end
$var wire 5 9 readR2 [4:0] $end
$var wire 5 : readR1 [4:0] $end
$var wire 1 & read $end
$var wire 32 ; pc_in [31:0] $end
$var wire 6 < instr31_26 [5:0] $end
$var wire 5 = instr25_21 [4:0] $end
$var wire 5 > instr20_16 [4:0] $end
$var wire 5 ? instr15_11 [4:0] $end
$var wire 16 @ instr15_0 [15:0] $end
$var wire 5 A instr10_6 [4:0] $end
$var wire 32 B full_instr [31:0] $end
$var wire 1 C fixed_shift $end
$var wire 4 D byteenable [3:0] $end
$var wire 1 E branch_equal $end
$var wire 32 F address [31:0] $end
$var wire 1 G ReturnToReg $end
$var wire 5 H Regmux2to1 [4:0] $end
$var wire 32 I RegWritemux2to1 [31:0] $end
$var wire 1 J RegWrite $end
$var wire 1 K RegDst $end
$var wire 32 L PC_RETURN_ADDR_ALOUT_MUX [31:0] $end
$var wire 1 M PCWriteCond $end
$var wire 1 N PCWrite $end
$var wire 2 O PCSource [1:0] $end
$var wire 32 P PC [31:0] $end
$var wire 1 Q MemtoReg $end
$var wire 32 R LO [31:0] $end
$var wire 1 S JUMP $end
$var wire 1 T IorD $end
$var wire 1 U IRWrite $end
$var wire 32 V HI_LO_ALUOut_to_Reg_mux [31:0] $end
$var wire 2 W HI_LO_ALUOut [1:0] $end
$var wire 32 X HI [31:0] $end
$var wire 32 Y Decodemux2to1 [31:0] $end
$var wire 4 Z ALUctl [3:0] $end
$var wire 32 [ ALU_result [31:0] $end
$var wire 64 \ ALU_MULTorDIV_result [63:0] $end
$var wire 2 ] ALUSrcB [1:0] $end
$var wire 1 ^ ALUSrcA $end
$var wire 32 _ ALUB [31:0] $end
$var wire 32 ` ALUAmux2to1 [31:0] $end
$var reg 32 a ALUOut [31:0] $end
$var reg 1 ) active $end
$var reg 32 b regA [31:0] $end
$var reg 32 c regB [31:0] $end
$scope module ALU $end
$var wire 32 d a [31:0] $end
$var wire 5 e instr10_6 [4:0] $end
$var wire 1 / zero $end
$var wire 1 1 unsign $end
$var wire 1 C fixed_shift $end
$var wire 1 E branch_equal $end
$var wire 32 f b [31:0] $end
$var wire 33 g B_unsign [32:0] $end
$var wire 33 h A_unsign [32:0] $end
$var wire 4 i ALUOperation [3:0] $end
$var reg 64 j ALU_MULTorDIV_result [63:0] $end
$var reg 32 k ALU_result [31:0] $end
$var reg 66 l ALU_temp_MULTorDIV_result [65:0] $end
$var reg 33 m ALU_temp_result [32:0] $end
$var reg 32 n quotient [31:0] $end
$var reg 33 o quotient_unsign [32:0] $end
$var reg 32 p remainder [31:0] $end
$var reg 33 q remainder_unsign [32:0] $end
$upscope $end
$scope module ALUmux4to1 $end
$var wire 6 r opcode [5:0] $end
$var wire 32 s register_b [31:0] $end
$var wire 16 t immediate [15:0] $end
$var wire 2 u ALUSrcB [1:0] $end
$var reg 32 v ALUB [31:0] $end
$var reg 32 w shift_2 [31:0] $end
$var reg 32 x sign_extended [31:0] $end
$upscope $end
$scope module HI_LO_Control $end
$var wire 64 y ALU_MULTorDIV_result [63:0] $end
$var wire 1 * clk $end
$var wire 6 z func_code [5:0] $end
$var wire 6 { opcode [5:0] $end
$var wire 32 | regA [31:0] $end
$var wire 1 + reset $end
$var wire 3 } state [2:0] $end
$var wire 6 ~ final_code [5:0] $end
$var wire 2 !" HI_LO_ALUOut [1:0] $end
$var reg 32 "" HI [31:0] $end
$var reg 32 #" LO [31:0] $end
$upscope $end
$scope module IR $end
$var wire 1 * clk $end
$var wire 1 + reset $end
$var wire 32 $" memdata [31:0] $end
$var wire 1 U IRWrite $end
$var reg 16 %" instr15_0 [15:0] $end
$var reg 5 &" instr20_16 [4:0] $end
$var reg 5 '" instr25_21 [4:0] $end
$var reg 6 (" instr31_26 [5:0] $end
$upscope $end
$scope module MEMmux $end
$var wire 32 )" ALUOut [31:0] $end
$var wire 6 *" opcode [5:0] $end
$var wire 4 +" byteenable [3:0] $end
$var wire 32 ," address [31:0] $end
$var wire 32 -" PC [31:0] $end
$var wire 1 T IorD $end
$upscope $end
$scope module control $end
$var wire 6 ." func_code [5:0] $end
$var wire 6 /" opcode [5:0] $end
$var wire 5 0" rt_code [4:0] $end
$var wire 3 1" state [2:0] $end
$var reg 1 ^ ALUSrcA $end
$var reg 2 2" ALUSrcB [1:0] $end
$var reg 4 3" ALUctl [3:0] $end
$var reg 1 U IRWrite $end
$var reg 1 T IorD $end
$var reg 1 S JUMP $end
$var reg 1 & MemRead $end
$var reg 1 " MemWrite $end
$var reg 1 Q MemtoReg $end
$var reg 2 4" PCSource [1:0] $end
$var reg 1 N PCWrite $end
$var reg 1 M PCWriteCond $end
$var reg 1 G PC_RETURN_ADDR $end
$var reg 1 K RegDst $end
$var reg 1 J RegWrite $end
$var reg 1 E branch_equal $end
$var reg 4 5" byteenable [3:0] $end
$var reg 1 C fixed_shift $end
$var reg 1 1 unsign $end
$upscope $end
$scope module pc1 $end
$var wire 1 6" PCWriteCond $end
$var wire 1 * clk $end
$var wire 1 N pcctl $end
$var wire 1 + reset $end
$var wire 1 3 stall $end
$var wire 3 7" state [2:0] $end
$var wire 32 8" pc_prev [31:0] $end
$var reg 32 9" branch_reg [31:0] $end
$var reg 32 :" pc_branch_address_reg [31:0] $end
$var reg 32 ;" pc_new [31:0] $end
$upscope $end
$scope module pcmux $end
$var wire 32 <" ALUOut [31:0] $end
$var wire 32 =" ALU_result [31:0] $end
$var wire 2 >" PCSource [1:0] $end
$var wire 32 ?" PC_in [31:0] $end
$var wire 16 @" instr15_0 [15:0] $end
$var wire 5 A" instr20_16 [4:0] $end
$var wire 5 B" instr25_21 [4:0] $end
$var reg 32 C" Jump_address [31:0] $end
$var reg 32 D" PC_out [31:0] $end
$upscope $end
$scope module regfile $end
$var wire 1 J RegWrite $end
$var wire 4 E" byteenable [3:0] $end
$var wire 1 * clk $end
$var wire 32 F" instr [31:0] $end
$var wire 5 G" readR1 [4:0] $end
$var wire 5 H" readR2 [4:0] $end
$var wire 32 I" readdata1 [31:0] $end
$var wire 32 J" readdata2 [31:0] $end
$var wire 32 K" register_v0 [31:0] $end
$var wire 1 + reset $end
$var wire 5 L" writeR [4:0] $end
$var wire 32 M" writedata [31:0] $end
$var wire 3 N" state [2:0] $end
$var wire 6 O" regimm_rt [5:0] $end
$var wire 6 P" opcode [5:0] $end
$scope begin $unm_blk_117 $end
$var integer 32 Q" i [31:0] $end
$upscope $end
$upscope $end
$scope module stm $end
$var wire 1 * clk $end
$var wire 1 + reset $end
$var wire 1 3 stall $end
$var reg 3 R" state [2:0] $end
$upscope $end
$scope module swap $end
$var wire 4 S" byteenable_from_CPU [3:0] $end
$var wire 6 T" opcode [5:0] $end
$var wire 32 U" writedata_from_CPU [31:0] $end
$var wire 32 V" writedata_to_RAM [31:0] $end
$var wire 32 W" readdata_to_CPU [31:0] $end
$var wire 32 X" readdata_from_RAM [31:0] $end
$upscope $end
$upscope $end
$scope module ram $end
$var wire 32 Y" address [31:0] $end
$var wire 4 Z" byteenable [3:0] $end
$var wire 1 * clk $end
$var wire 1 & read $end
$var wire 1 " write $end
$var wire 32 [" writedata [31:0] $end
$var reg 32 \" readdata [31:0] $end
$var reg 32 ]" readdata_temp [31:0] $end
$var reg 32 ^" readdata_temp_shift [31:0] $end
$var reg 32 _" writedata_temp [31:0] $end
$scope begin $unm_blk_124 $end
$var integer 32 `" i [31:0] $end
$upscope $end
$upscope $end
$upscope $end
$enddefinitions $end
#0
$dumpvars
b1000000000000 `"
bx _"
bx ^"
bx ]"
bx \"
bx ["
b1111 Z"
bx Y"
bx X"
bx W"
bx V"
bx U"
bx T"
b1111 S"
bx R"
bx Q"
bx P"
b0xxxxx O"
bx N"
bx M"
bx L"
bx K"
bx J"
bx I"
bx H"
bx G"
bx F"
b1111 E"
bx D"
bx00 C"
bx B"
bx A"
bx @"
bx ?"
bx >"
bx ="
bx <"
bx ;"
bx :"
bx 9"
bx 8"
bx 7"
06"
bx 5"
bx 4"
b0 3"
b0 2"
bx 1"
bx 0"
bx /"
bx ."
bx -"
bx ,"
b1111 +"
bx *"
bx )"
bx ("
bx '"
bx &"
bx %"
bx $"
bx #"
bx ""
bx !"
bx ~
bx }
bx |
bx {
bx z
bx y
bx x
bx00 w
bx v
b0 u
bx t
bx s
bx r
bx q
bx p
bx o
bx n
bx m
bx l
bx k
bx j
b0 i
b0xxxxxxxxxxxxxxxxxxxxxxxxxxxxxxxx h
b0xxxxxxxxxxxxxxxxxxxxxxxxxxxxxxxx g
bx f
bx e
bx d
bx c
bx b
bx a
bx `
bx _
1^
b0 ]
bx \
bx [
b0 Z
bx Y
bx X
bx W
bx V
0U
0T
0S
bx R
0Q
bx P
bx O
0N
0M
bx L
0K
0J
bx I
bx H
xG
bx F
0E
b1111 D
0C
bx B
bx A
bx @
bx ?
bx >
bx =
bx <
bx ;
bx :
bx 9
bx 8
bx 7
bx 6
bx 5
bx 4
03
bx 2
01
bx 0
x/
bx .
b1 -
0,
0+
0*
x)
bx (
b1111 '
0&
bx %
bx $
bx #
0"
bx !
$end
#10
1*
#20
1+
0*
#30
b0 I
b0 M"
b0x00 L
b0 V
0/
b0 W
b0 !"
b0 H
b0 L"
b0 ~
b100 ;
b100 8"
b100 D"
b100 [
b100 k
b100 ="
b0 /"
b0 ."
b0 0"
b0 *"
b0 r
b0 7
b0 I"
b0 :
b0 G"
b0 6
b0 s
b0 J"
b0 9
b0 H"
b0 {
b0 z
b0 B"
b0 A"
b0 @"
b0 T"
b0 P"
b0 O"
b0 !
b0 0
b0 V"
b0 ["
b0 h
b0 `
b0 d
b100 g
b100 _
b100 f
b100 v
b0 w
b0 x
b0 (
b0 F
b0 ,"
b0 Y"
b0 C"
b0 Y
b0 F"
1&
b0 O
b0 4"
b0 >"
1N
b1 ]
b1 u
b1 2"
0^
b0 #
b0 4
b0 K"
b0 a
b0 )"
b0 <"
b0 .
b0 c
b0 U"
b0 b
b0 |
b0 X
b0 ""
b0 R
b0 #"
b0 @
b0 t
b0 %"
b0 >
b0 &"
b0 =
b0 '"
b0 B
b0 <
b0 ("
b0 :"
b0 P
b0 -"
b0 ;"
b0 ?"
b0 2
b0 }
b0 1"
b0 7"
b0 N"
b0 R"
b100000 Q"
1*
#40
0+
0*
#50
b0 W
b0 !"
b1 H
b1 L"
b100011 ~
b100 ;
b100 8"
b100 D"
b1000000000111010000 C"
b1 A
b1 e
b0 ?
b100011 /"
b110100 ."
b1 0"
b100011 *"
b100011 r
b0 7
b0 I"
b0 :
b0 G"
b0 6
b0 s
b0 J"
b1 9
b1 H"
b100011 {
b110100 z
b0 B"
b1 A"
b1110100 @"
b100011 T"
b100011 P"
b1 O"
b0 g
b0 _
b0 f
b0 v
b100 [
b100 k
b100 ="
b100 I
b100 M"
b10001100000000010000000001110100 5
b10001100000000010000000001110100 $"
b10001100000000010000000001110100 W"
b10001100000000010000000001110100 $
b10001100000000010000000001110100 Y
b10001100000000010000000001110100 F"
1U
0&
0N
b10 ]
b10 u
b10 2"
0^
b100 (
b100 F
b100 ,"
b100 Y"
b0xx00 L
b100 h
b100 `
b100 d
b100 V
bx011101000000000000000001 ^"
b1110100000000000000000110001100 %
b1110100000000000000000110001100 8
b1110100000000000000000110001100 X"
b1110100000000000000000110001100 \"
b1 2
b1 }
b1 1"
b1 7"
b1 N"
b1 R"
b100 P
b100 -"
b100 ;"
b100 ?"
b100 a
b100 )"
b100 <"
b1110100000000000000000110001100 ]"
1*
#60
0*
#70
b1110100 ;
b1110100 8"
b1110100 D"
b1110100 [
b1110100 k
b1110100 ="
b0 h
b0 `
b0 d
b1110100 g
b1110100 _
b1110100 f
b1110100 v
b111010000 w
b1110100 x
0U
b10 ]
b10 u
b10 2"
1^
b1110100 @
b1110100 t
b1110100 %"
b1 >
b1 &"
b10001100000000010000000001110100 B
b100011 <
b100011 ("
b10 2
b10 }
b10 1"
b10 7"
b10 N"
b10 R"
1*
#80
0*
#90
1/
b0 ;
b0 8"
b0 D"
b0 [
b0 k
b0 ="
b1110100 (
b1110100 F
b1110100 ,"
b1110100 Y"
b0 g
b0 _
b0 f
b0 v
b1110100 I
b1110100 M"
b0xxxxx00 L
1&
1T
b0 ]
b0 u
b0 2"
b1110100 V
b11 2
b11 }
b11 1"
b11 7"
b11 N"
b11 R"
b1110100 a
b1110100 )"
b1110100 <"
1*
#100
0*
#110
b0 A
b0 e
b1100 5
b1100 $"
b1100 W"
b1100 $
b0x000 L
b1100 I
b1100 M"
b100 (
b100 F
b100 ,"
b100 Y"
b1000011000000000000000000 ^"
b1100000000000000000000000000 %
b1100000000000000000000000000 8
b1100000000000000000000000000 X"
b1100000000000000000000000000 \"
b0 V
1Q
1J
0&
0T
b1110100 #
b1110100 4
b1110100 K"
b1100000000000000000000000000 ]"
b0 a
b0 )"
b0 <"
b100 2
b100 }
b100 1"
b100 7"
b100 N"
b100 R"
1*
#120
b10 -
0*
#130
0/
b1000 ;
b1000 8"
b1000 D"
b1000 [
b1000 k
b1000 ="
b100 h
b100 `
b100 d
b0 I
b0 M"
b100 g
b100 _
b100 f
b100 v
1&
1N
b1 ]
b1 u
b1 2"
0^
0Q
0J
b1100 6
b1100 s
b1100 J"
b0 2
b0 }
b0 1"
b0 7"
b0 N"
b0 R"
1*
#140
0*
#150
b1 A
b1 e
b10 H
b10 L"
b100011 ~
b1111100 ;
b1111100 8"
b1111100 D"
b10000000000111100000 C"
b10001100000000100000000001111000 5
b10001100000000100000000001111000 $"
b10001100000000100000000001111000 W"
b10001100000000100000000001111000 $
b1000 I
b1000 M"
b1111100 [
b1111100 k
b1111100 ="
b100011 /"
b111000 ."
b10 0"
b100011 *"
b100011 r
b1110100 6
b1110100 s
b1110100 J"
b10 9
b10 H"
b100011 {
b111000 z
b10 A"
b1111000 @"
b100011 T"
b100011 P"
b10 O"
b1110100 g
b1110100 _
b1110100 f
b1110100 v
b11110000000000000000010 ^"
b1111000000000000000001010001100 %
b1111000000000000000001010001100 8
b1111000000000000000001010001100 X"
b1111000000000000000001010001100 \"
b1000 V
b1100000000000000000000000000 !
b1100000000000000000000000000 0
b1100000000000000000000000000 V"
b1100000000000000000000000000 ["
b1000 (
b1000 F
b1000 ,"
b1000 Y"
b1x00 L
b1000 h
b1000 `
b1000 d
b10001100000000100000000001111000 Y
b10001100000000100000000001111000 F"
1U
0&
0N
b10 ]
b10 u
b10 2"
0^
b1111000000000000000001010001100 ]"
b1000 a
b1000 )"
b1000 <"
b1100 .
b1100 c
b1100 U"
b1000 P
b1000 -"
b1000 ;"
b1000 ?"
b1 2
b1 }
b1 1"
b1 7"
b1 N"
b1 R"
1*
#160
0*
#170
b1111000 ;
b1111000 8"
b1111000 D"
b0 h
b0 `
b0 d
b1111000 [
b1111000 k
b1111000 ="
b1111100 I
b1111100 M"
b0xxx1100 L
0U
b10 ]
b10 u
b10 2"
1^
b1111000 g
b1111000 _
b1111000 f
b1111000 v
b111100000 w
b1111000 x
b1111100 V
b1110100000000000000000000000000 !
b1110100000000000000000000000000 0
b1110100000000000000000000000000 V"
b1110100000000000000000000000000 ["
b10 2
b10 }
b10 1"
b10 7"
b10 N"
b10 R"
b1111000 @
b1111000 t
b1111000 %"
b10001100000000100000000001111000 B
b10 >
b10 &"
b1111100 a
b1111100 )"
b1111100 <"
b1110100 .
b1110100 c
b1110100 U"
1*
#180
0*
#190
b1110100 ;
b1110100 8"
b1110100 D"
b1110100 [
b1110100 k
b1110100 ="
b1111000 I
b1111000 M"
b0xxx1x00 L
b1111000 (
b1111000 F
b1111000 ,"
b1111000 Y"
b1110100 g
b1110100 _
b1110100 f
b1110100 v
b1111000 V
1&
1T
b0 ]
b0 u
b0 2"
b1111000 a
b1111000 )"
b1111000 <"
b11 2
b11 }
b11 1"
b11 7"
b11 N"
b11 R"
1*
#200
0*
#210
b1111000 ;
b1111000 8"
b1111000 D"
b0 A
b0 e
b1111000 [
b1111000 k
b1111000 ="
b1100 I
b1100 M"
b0xxxx100 L
b1000 (
b1000 F
b1000 ,"
b1000 Y"
b1100 5
b1100 $"
b1100 W"
b1100 $
b1111000 g
b1111000 _
b1111000 f
b1111000 v
1Q
1J
0&
0T
b1110100 V
b10000011000000000000000000 ^"
b1100000000000000000000000000 %
b1100000000000000000000000000 8
b1100000000000000000000000000 X"
b1100000000000000000000000000 \"
b1111000 6
b1111000 s
b1111000 J"
b1111000 #
b1111000 4
b1111000 K"
b100 2
b100 }
b100 1"
b100 7"
b100 N"
b100 R"
b1110100 a
b1110100 )"
b1110100 <"
b1100000000000000000000000000 ]"
1*
#220
b11 -
0*
#230
b1100 ;
b1100 8"
b1100 D"
b1100 [
b1100 k
b1100 ="
b0xxx1x00 L
b1000 h
b1000 `
b1000 d
b1111000 I
b1111000 M"
b100 g
b100 _
b100 f
b100 v
b1111000 V
b1111000000000000000000000000000 !
b1111000000000000000000000000000 0
b1111000000000000000000000000000 V"
b1111000000000000000000000000000 ["
1&
1N
b1 ]
b1 u
b1 2"
0^
0Q
0J
b1100 6
b1100 s
b1100 J"
b1100 #
b1100 4
b1100 K"
b1111000 a
b1111000 )"
b1111000 <"
b1111000 .
b1111000 c
b1111000 U"
b0 2
b0 }
b0 1"
b0 7"
b0 N"
b0 R"
1*
#240
0*
#250
b1100 7
b1100 I"
b1 :
b1 G"
b1 B"
b10 H
b10 L"
b100 ~
b10000100 ;
b10000100 8"
b10000100 D"
b100010000000000000001000 C"
b100 /"
b10 ."
b10 0"
b100 *"
b100 r
b1100 6
b1100 s
b1100 J"
b10 9
b10 H"
b100 {
b10 z
b10 A"
b10 @"
b100 T"
b100 P"
b10 O"
b1111000 g
b1111000 _
b1111000 f
b1111000 v
b10000100 [
b10000100 k
b10000100 ="
b1100 I
b1100 M"
b10000001000100000000000000010 5
b10000001000100000000000000010 $"
b10000001000100000000000000010 W"
b10000001000100000000000000010 $
b10000001000100000000000000010 Y
b10000001000100000000000000010 F"
1U
0&
0N
b10 ]
b10 u
b10 2"
0^
b1100 (
b1100 F
b1100 ,"
b1100 Y"
b0xxx00 L
b1100 h
b1100 `
b1100 d
b1100 V
b1100000000000000000000000000 !
b1100000000000000000000000000 0
b1100000000000000000000000000 V"
b1100000000000000000000000000 ["
b100000000000100010 ^"
b10000000000010001000010000 %
b10000000000010001000010000 8
b10000000000010001000010000 X"
b10000000000010001000010000 \"
b1 2
b1 }
b1 1"
b1 7"
b1 N"
b1 R"
b1100 P
b1100 -"
b1100 ;"
b1100 ?"
b1100 a
b1100 )"
b1100 <"
b1100 .
b1100 c
b1100 U"
b10000000000010001000010000 ]"
1*
#260
0*
#270
b10100 ;
b10100 8"
b10100 D"
b10000100 I
b10000100 M"
b0x00x0x00 L
b10100 [
b10100 k
b10100 ="
b10000100 V
b1000 g
b1000 _
b1000 f
b1000 v
b1000 w
b10 x
0U
b11 ]
b11 u
b11 2"
0^
b10000100 a
b10000100 )"
b10000100 <"
b1100 b
b1100 |
b10 @
b10 t
b10 %"
b1 =
b1 '"
b10000001000100000000000000010 B
b100 <
b100 ("
b10 2
b10 }
b10 1"
b10 7"
b10 N"
b10 R"
1*
#280
0*
#290
16"
1/
b0 [
b0 k
b0 ="
b1100 g
b1100 _
b1100 f
b1100 v
b10100 I
b10100 M"
b10x00 L
b1 O
b1 4"
b1 >"
1M
b10 Z
b10 i
b10 3"
b0 ]
b0 u
b0 2"
1^
b10100 V
b11 2
b11 }
b11 1"
b11 7"
b11 N"
b11 R"
b10100 a
b10100 )"
b10100 <"
1*
#300
0*
#310
0/
06"
b0 I
b0 M"
b0x0000 L
b100000 [
b100000 k
b100000 ="
b10100 g
b10100 _
b10100 f
b10100 v
b0 V
b0 ;
b0 8"
b0 D"
0M
b0 Z
b0 i
b0 3"
b10100 6
b10100 s
b10100 J"
b10100 #
b10100 4
b10100 K"
b0 a
b0 )"
b0 <"
b1 9"
b10100 :"
b100 2
b100 }
b100 1"
b100 7"
b100 N"
b100 R"
1*
#320
b100 -
0*
#330
b10000 [
b10000 k
b10000 ="
b100 g
b100 _
b100 f
b100 v
b100000 I
b100000 M"
b0xx0000 L
1&
b0 O
b0 4"
b0 >"
1N
b1 ]
b1 u
b1 2"
0^
b100000 V
b10000 ;
b10000 8"
b10000 D"
b10100000000000000000000000000 !
b10100000000000000000000000000 0
b10100000000000000000000000000 V"
b10100000000000000000000000000 ["
b0 2
b0 }
b0 1"
b0 7"
b0 N"
b0 R"
b100000 a
b100000 )"
b100000 <"
b10100 .
b10100 c
b10100 U"
1*
#340
0*
#350
b0 H
b0 L"
b0 ~
b0 C"
b0 /"
b0 ."
b0 0"
b0 *"
b0 r
b0 7
b0 I"
b0 :
b0 G"
b0 6
b0 s
b0 J"
b0 9
b0 H"
b0 {
b0 z
b0 B"
b0 A"
b0 @"
b0 T"
b0 P"
b0 O"
b0 Y
b0 F"
b10010 ;
b10010 8"
b10010 D"
b0 5
b0 $"
b0 W"
b0 $
b10000 I
b10000 M"
b10010 [
b10010 k
b10010 ="
b10 g
b10 _
b10 f
b10 v
b100010000000000000000000000000 ^"
b0 %
b0 8
b0 X"
b0 \"
b10000 V
b10000 (
b10000 F
b10000 ,"
b10000 Y"
b10x00 L
b10000 h
b10000 `
b10000 d
1U
0&
0N
b10 ]
b10 u
b10 2"
0^
b0 ]"
b10000 a
b10000 )"
b10000 <"
b10000 P
b10000 -"
b10000 ;"
b10000 ?"
b1 2
b1 }
b1 1"
b1 7"
b1 N"
b1 R"
1*
#360
0*
#370
1/
b0 ;
b0 8"
b0 D"
b0 h
b0 `
b0 d
b0 [
b0 k
b0 ="
b10010 I
b10010 M"
b10xx0 L
b1011 Z
b1011 i
b1011 3"
1C
0U
b0 ]
b0 u
b0 2"
1^
b0 g
b0 _
b0 f
b0 v
b0 w
b0 x
b10010 V
b0 !
b0 0
b0 V"
b0 ["
b10 2
b10 }
b10 1"
b10 7"
b10 N"
b10 R"
b0 @
b0 t
b0 %"
b0 >
b0 &"
b0 =
b0 '"
b0 B
b0 <
b0 ("
b10010 a
b10010 )"
b10010 <"
b0 .
b0 c
b0 U"
b0 b
b0 |
1*
#380
0*
#390
b0 I
b0 M"
b0x0x00 L
b0 V
1K
1J
0C
b0 Z
b0 i
b0 3"
b0 a
b0 )"
b0 <"
b11 2
b11 }
b11 1"
b11 7"
b11 N"
b11 R"
1*
#400
0*
#410
0J
0K
b10100 (
b10100 F
b10100 ,"
b10100 Y"
b0xx000 L
b0 #
b0 4
b0 K"
b100 2
b100 }
b100 1"
b100 7"
b100 N"
b100 R"
b0 9"
b10100 P
b10100 -"
b10100 ;"
b10100 ?"
1*
#420
b101 -
0*
#430
0/
b11000 ;
b11000 8"
b11000 D"
b11000 [
b11000 k
b11000 ="
b100 g
b100 _
b100 f
b100 v
b10100 h
b10100 `
b10100 d
1&
1N
b1 ]
b1 u
b1 2"
0^
b0 2
b0 }
b0 1"
b0 7"
b0 N"
b0 R"
1*
#440
0*
#450
b1 H
b1 L"
b1 ~
b100001000000000000100000 C"
b1 /"
b1000 ."
b1 0"
b1 *"
b1 r
b1100 7
b1100 I"
b1 :
b1 G"
b1100 6
b1100 s
b1100 J"
b1 9
b1 H"
b1 {
b1000 z
b1 B"
b1 A"
b1000 @"
b1 T"
b1 P"
b1 O"
b11000 ;
b11000 8"
b11000 D"
b100001000010000000000001000 Y
b100001000010000000000001000 F"
b0 g
b0 _
b0 f
b0 v
b11000 [
b11000 k
b11000 ="
b11000 I
b11000 M"
b100001000010000000000001000 5
b100001000010000000000001000 $"
b100001000010000000000001000 W"
b100001000010000000000001000 $
1U
0&
0N
b10 ]
b10 u
b10 2"
0^
b11000 (
b11000 F
b11000 ,"
b11000 Y"
b11x00 L
b11000 h
b11000 `
b11000 d
b11000 V
b10000000000000100001 ^"
b1000000000000010000100000100 %
b1000000000000010000100000100 8
b1000000000000010000100000100 X"
b1000000000000010000100000100 \"
b1 2
b1 }
b1 1"
b1 7"
b1 N"
b1 R"
b11000 P
b11000 -"
b11000 ;"
b11000 ?"
b11000 a
b11000 )"
b11000 <"
b1000000000000010000100000100 ]"
1*
#460
0*
#470
b111000 ;
b111000 8"
b111000 D"
b111000 [
b111000 k
b111000 ="
b1100000000000000000000000000 !
b1100000000000000000000000000 0
b1100000000000000000000000000 V"
b1100000000000000000000000000 ["
b100000 g
b100000 _
b100000 f
b100000 v
b100000 w
b1000 x
0U
b11 ]
b11 u
b11 2"
0^
b1100 .
b1100 c
b1100 U"
b1100 b
b1100 |
b1000 @
b1000 t
b1000 %"
b1 >
b1 &"
b1 =
b1 '"
b100001000010000000000001000 B
b1 <
b1 ("
b10 2
b10 }
b10 1"
b10 7"
b10 N"
b10 R"
1*
#480
0*
#490
1/
b0 [
b0 k
b0 ="
b1100 g
b1100 _
b1100 f
b1100 v
b1100 h
b1100 `
b1100 d
b111000 I
b111000 M"
b0x11x00 L
b1 O
b1 4"
b1 >"
b11 Z
b11 i
b11 3"
b0 ]
b0 u
b0 2"
1^
b111000 V
b11 2
b11 }
b11 1"
b11 7"
b11 N"
b11 R"
b111000 a
b111000 )"
b111000 <"
1*
#500
0*
#510
0/
b0 I
b0 M"
b0xxx00 L
b11000 [
b11000 k
b11000 ="
b0 V
b0 ;
b0 8"
b0 D"
b0 Z
b0 i
b0 3"
b111000 #
b111000 4
b111000 K"
b0 a
b0 )"
b0 <"
b100 2
b100 }
b100 1"
b100 7"
b100 N"
b100 R"
1*
#520
b110 -
0*
#530
b11100 [
b11100 k
b11100 ="
b100 g
b100 _
b100 f
b100 v
b11000 h
b11000 `
b11000 d
b11000 I
b11000 M"
b11x00 L
1&
b0 O
b0 4"
b0 >"
1N
b1 ]
b1 u
b1 2"
0^
b11000 V
b11100 ;
b11100 8"
b11100 D"
b0 2
b0 }
b0 1"
b0 7"
b0 N"
b0 R"
b11000 a
b11000 )"
b11000 <"
1*
#540
0*
#550
b0 H
b0 L"
b0 ~
b0 C"
b0 /"
b0 ."
b0 0"
b0 *"
b0 r
b0 7
b0 I"
b0 :
b0 G"
b0 6
b0 s
b0 J"
b0 9
b0 H"
b0 {
b0 z
b0 B"
b0 A"
b0 @"
b0 T"
b0 P"
b0 O"
b0 Y
b0 F"
b100100 ;
b100100 8"
b100100 D"
b0 5
b0 $"
b0 W"
b0 $
b11100 I
b11100 M"
b100100 [
b100100 k
b100100 ="
b1000 g
b1000 _
b1000 f
b1000 v
b100001000000000000000000000000 ^"
b0 %
b0 8
b0 X"
b0 \"
b11100 V
b11100 (
b11100 F
b11100 ,"
b11100 Y"
b0xxxx00 L
b11100 h
b11100 `
b11100 d
1U
0&
0N
b10 ]
b10 u
b10 2"
0^
b0 ]"
b11100 a
b11100 )"
b11100 <"
b11100 P
b11100 -"
b11100 ;"
b11100 ?"
b1 2
b1 }
b1 1"
b1 7"
b1 N"
b1 R"
1*
#560
0*
#570
1/
b0 ;
b0 8"
b0 D"
b0 h
b0 `
b0 d
b0 [
b0 k
b0 ="
b100100 I
b100100 M"
b100x00 L
b1011 Z
b1011 i
b1011 3"
1C
0U
b0 ]
b0 u
b0 2"
1^
b0 g
b0 _
b0 f
b0 v
b0 w
b0 x
b100100 V
b0 !
b0 0
b0 V"
b0 ["
b10 2
b10 }
b10 1"
b10 7"
b10 N"
b10 R"
b0 @
b0 t
b0 %"
b0 >
b0 &"
b0 =
b0 '"
b0 B
b0 <
b0 ("
b100100 a
b100100 )"
b100100 <"
b0 .
b0 c
b0 U"
b0 b
b0 |
1*
#580
0*
#590
b0 I
b0 M"
b0x00000 L
b0 V
1K
1J
0C
b0 Z
b0 i
b0 3"
b0 a
b0 )"
b0 <"
b11 2
b11 }
b11 1"
b11 7"
b11 N"
b11 R"
1*
#600
0*
#610
0J
0K
b0 #
b0 4
b0 K"
b100 2
b100 }
b100 1"
b100 7"
b100 N"
b100 R"
1*
#620
b111 -
0*
#630
0/
b100000 ;
b100000 8"
b100000 D"
b100000 [
b100000 k
b100000 ="
b100 g
b100 _
b100 f
b100 v
b11100 h
b11100 `
b11100 d
1&
1N
b1 ]
b1 u
b1 2"
0^
b0 2
b0 }
b0 1"
b0 7"
b0 N"
b0 R"
1*
#640
0*
